%YAML 1.1
%TAG !u! tag:unity3d.com,2011:
--- !u!1 &116038
GameObject:
  m_ObjectHideFlags: 0
  m_PrefabParentObject: {fileID: 0}
  m_PrefabInternal: {fileID: 100100000}
  serializedVersion: 4
  m_Component:
  - 4: {fileID: 416038}
  - 137: {fileID: 13716038}
  m_Layer: 0
  m_Name: NeuronRobot_Mesh
  m_TagString: Untagged
  m_Icon: {fileID: 0}
  m_NavMeshLayer: 0
  m_StaticEditorFlags: 0
  m_IsActive: 1
--- !u!1 &141562
GameObject:
  m_ObjectHideFlags: 0
  m_PrefabParentObject: {fileID: 0}
  m_PrefabInternal: {fileID: 100100000}
  serializedVersion: 4
  m_Component:
  - 4: {fileID: 441562}
  - 137: {fileID: 13741562}
  m_Layer: 0
  m_Name: GEO
  m_TagString: Untagged
  m_Icon: {fileID: 0}
  m_NavMeshLayer: 0
  m_StaticEditorFlags: 0
  m_IsActive: 1
--- !u!1 &175836
GameObject:
  m_ObjectHideFlags: 1
  m_PrefabParentObject: {fileID: 0}
  m_PrefabInternal: {fileID: 100100000}
  serializedVersion: 4
  m_Component:
  - 4: {fileID: 475836}
  m_Layer: 0
  m_Name: Robot_RightForeArm
  m_TagString: Untagged
  m_Icon: {fileID: 0}
  m_NavMeshLayer: 0
  m_StaticEditorFlags: 0
  m_IsActive: 1
--- !u!1 &175838
GameObject:
  m_ObjectHideFlags: 1
  m_PrefabParentObject: {fileID: 0}
  m_PrefabInternal: {fileID: 100100000}
  serializedVersion: 4
  m_Component:
  - 4: {fileID: 475838}
  m_Layer: 0
  m_Name: Robot_RightHandThumb3
  m_TagString: Untagged
  m_Icon: {fileID: 0}
  m_NavMeshLayer: 0
  m_StaticEditorFlags: 0
  m_IsActive: 1
--- !u!1 &175840
GameObject:
  m_ObjectHideFlags: 1
  m_PrefabParentObject: {fileID: 0}
  m_PrefabInternal: {fileID: 100100000}
  serializedVersion: 4
  m_Component:
  - 4: {fileID: 475840}
  m_Layer: 0
  m_Name: Robot_RightHandIndex1
  m_TagString: Untagged
  m_Icon: {fileID: 0}
  m_NavMeshLayer: 0
  m_StaticEditorFlags: 0
  m_IsActive: 1
--- !u!1 &175842
GameObject:
  m_ObjectHideFlags: 1
  m_PrefabParentObject: {fileID: 0}
  m_PrefabInternal: {fileID: 100100000}
  serializedVersion: 4
  m_Component:
  - 4: {fileID: 475842}
  - 96: {fileID: 9698356}
  m_Layer: 0
  m_Name: Robot_RightHandMiddle4
  m_TagString: Untagged
  m_Icon: {fileID: 0}
  m_NavMeshLayer: 0
  m_StaticEditorFlags: 0
  m_IsActive: 1
--- !u!1 &175844
GameObject:
  m_ObjectHideFlags: 1
  m_PrefabParentObject: {fileID: 0}
  m_PrefabInternal: {fileID: 100100000}
  serializedVersion: 4
  m_Component:
  - 4: {fileID: 475844}
  m_Layer: 0
  m_Name: Robot_LeftInHandIndex
  m_TagString: Untagged
  m_Icon: {fileID: 0}
  m_NavMeshLayer: 0
  m_StaticEditorFlags: 0
  m_IsActive: 1
--- !u!1 &175846
GameObject:
  m_ObjectHideFlags: 1
  m_PrefabParentObject: {fileID: 0}
  m_PrefabInternal: {fileID: 100100000}
  serializedVersion: 4
  m_Component:
  - 4: {fileID: 475846}
  m_Layer: 0
  m_Name: Robot_RightHandRing2
  m_TagString: Untagged
  m_Icon: {fileID: 0}
  m_NavMeshLayer: 0
  m_StaticEditorFlags: 0
  m_IsActive: 1
--- !u!1 &175848
GameObject:
  m_ObjectHideFlags: 1
  m_PrefabParentObject: {fileID: 0}
  m_PrefabInternal: {fileID: 100100000}
  serializedVersion: 4
  m_Component:
  - 4: {fileID: 475848}
  m_Layer: 0
  m_Name: Robot_LeftForeArm
  m_TagString: Untagged
  m_Icon: {fileID: 0}
  m_NavMeshLayer: 0
  m_StaticEditorFlags: 0
  m_IsActive: 1
--- !u!1 &175850
GameObject:
  m_ObjectHideFlags: 1
  m_PrefabParentObject: {fileID: 0}
  m_PrefabInternal: {fileID: 100100000}
  serializedVersion: 4
  m_Component:
  - 4: {fileID: 475850}
  m_Layer: 0
  m_Name: Robot_LeftShoulder
  m_TagString: Untagged
  m_Icon: {fileID: 0}
  m_NavMeshLayer: 0
  m_StaticEditorFlags: 0
  m_IsActive: 1
--- !u!1 &175852
GameObject:
  m_ObjectHideFlags: 1
  m_PrefabParentObject: {fileID: 0}
  m_PrefabInternal: {fileID: 100100000}
  serializedVersion: 4
  m_Component:
  - 4: {fileID: 475852}
  - 96: {fileID: 9698360}
  m_Layer: 0
  m_Name: Robot_RightHandPinky4
  m_TagString: Untagged
  m_Icon: {fileID: 0}
  m_NavMeshLayer: 0
  m_StaticEditorFlags: 0
  m_IsActive: 1
--- !u!1 &175854
GameObject:
  m_ObjectHideFlags: 1
  m_PrefabParentObject: {fileID: 0}
  m_PrefabInternal: {fileID: 100100000}
  serializedVersion: 4
  m_Component:
  - 4: {fileID: 475854}
  m_Layer: 0
  m_Name: Robot_LeftInHandPinky
  m_TagString: Untagged
  m_Icon: {fileID: 0}
  m_NavMeshLayer: 0
  m_StaticEditorFlags: 0
  m_IsActive: 1
--- !u!1 &175856
GameObject:
  m_ObjectHideFlags: 1
  m_PrefabParentObject: {fileID: 0}
  m_PrefabInternal: {fileID: 100100000}
  serializedVersion: 4
  m_Component:
  - 4: {fileID: 475856}
  m_Layer: 0
  m_Name: Robot_Spine
  m_TagString: Untagged
  m_Icon: {fileID: 0}
  m_NavMeshLayer: 0
  m_StaticEditorFlags: 0
  m_IsActive: 1
--- !u!1 &175858
GameObject:
  m_ObjectHideFlags: 1
  m_PrefabParentObject: {fileID: 0}
  m_PrefabInternal: {fileID: 100100000}
  serializedVersion: 4
  m_Component:
  - 4: {fileID: 475858}
  - 96: {fileID: 9698370}
  m_Layer: 0
  m_Name: Robot_LeftFoot
  m_TagString: Untagged
  m_Icon: {fileID: 0}
  m_NavMeshLayer: 0
  m_StaticEditorFlags: 0
  m_IsActive: 1
--- !u!1 &175860
GameObject:
  m_ObjectHideFlags: 1
  m_PrefabParentObject: {fileID: 0}
  m_PrefabInternal: {fileID: 100100000}
  serializedVersion: 4
  m_Component:
  - 4: {fileID: 475860}
  m_Layer: 0
  m_Name: Robot_LeftHandRing1
  m_TagString: Untagged
  m_Icon: {fileID: 0}
  m_NavMeshLayer: 0
  m_StaticEditorFlags: 0
  m_IsActive: 1
--- !u!1 &175862
GameObject:
  m_ObjectHideFlags: 1
  m_PrefabParentObject: {fileID: 0}
  m_PrefabInternal: {fileID: 100100000}
  serializedVersion: 4
  m_Component:
  - 4: {fileID: 475862}
  m_Layer: 0
  m_Name: Robot_RightHandRing3
  m_TagString: Untagged
  m_Icon: {fileID: 0}
  m_NavMeshLayer: 0
  m_StaticEditorFlags: 0
  m_IsActive: 1
--- !u!1 &175864
GameObject:
  m_ObjectHideFlags: 1
  m_PrefabParentObject: {fileID: 0}
  m_PrefabInternal: {fileID: 100100000}
  serializedVersion: 4
  m_Component:
  - 4: {fileID: 475864}
  m_Layer: 0
  m_Name: Robot_LeftHandRing3
  m_TagString: Untagged
  m_Icon: {fileID: 0}
  m_NavMeshLayer: 0
  m_StaticEditorFlags: 0
  m_IsActive: 1
--- !u!1 &175866
GameObject:
  m_ObjectHideFlags: 1
  m_PrefabParentObject: {fileID: 0}
  m_PrefabInternal: {fileID: 100100000}
  serializedVersion: 4
  m_Component:
  - 4: {fileID: 475866}
  m_Layer: 0
  m_Name: Robot_LeftHandPinky2
  m_TagString: Untagged
  m_Icon: {fileID: 0}
  m_NavMeshLayer: 0
  m_StaticEditorFlags: 0
  m_IsActive: 1
--- !u!1 &175868
GameObject:
  m_ObjectHideFlags: 1
  m_PrefabParentObject: {fileID: 0}
  m_PrefabInternal: {fileID: 100100000}
  serializedVersion: 4
  m_Component:
  - 4: {fileID: 475868}
  m_Layer: 0
  m_Name: Robot_LeftHandRing2
  m_TagString: Untagged
  m_Icon: {fileID: 0}
  m_NavMeshLayer: 0
  m_StaticEditorFlags: 0
  m_IsActive: 1
--- !u!1 &175870
GameObject:
  m_ObjectHideFlags: 1
  m_PrefabParentObject: {fileID: 0}
  m_PrefabInternal: {fileID: 100100000}
  serializedVersion: 4
  m_Component:
  - 4: {fileID: 475870}
  m_Layer: 0
  m_Name: Robot_RightInHandRing
  m_TagString: Untagged
  m_Icon: {fileID: 0}
  m_NavMeshLayer: 0
  m_StaticEditorFlags: 0
  m_IsActive: 1
--- !u!1 &175872
GameObject:
  m_ObjectHideFlags: 1
  m_PrefabParentObject: {fileID: 0}
  m_PrefabInternal: {fileID: 100100000}
  serializedVersion: 4
  m_Component:
  - 4: {fileID: 475872}
  - 96: {fileID: 9698368}
  m_Layer: 0
  m_Name: Robot_RightFoot
  m_TagString: Untagged
  m_Icon: {fileID: 0}
  m_NavMeshLayer: 0
  m_StaticEditorFlags: 0
  m_IsActive: 1
--- !u!1 &175874
GameObject:
  m_ObjectHideFlags: 0
  m_PrefabParentObject: {fileID: 0}
  m_PrefabInternal: {fileID: 100100000}
  serializedVersion: 4
  m_Component:
  - 4: {fileID: 475874}
  - 95: {fileID: 9575986}
  - 114: {fileID: 11475986}
  m_Layer: 0
  m_Name: DebugActor
  m_TagString: Untagged
  m_Icon: {fileID: 0}
  m_NavMeshLayer: 0
  m_StaticEditorFlags: 0
  m_IsActive: 1
--- !u!1 &175876
GameObject:
  m_ObjectHideFlags: 1
  m_PrefabParentObject: {fileID: 0}
  m_PrefabInternal: {fileID: 100100000}
  serializedVersion: 4
  m_Component:
  - 4: {fileID: 475876}
  m_Layer: 0
  m_Name: Robot_Spine1
  m_TagString: Untagged
  m_Icon: {fileID: 0}
  m_NavMeshLayer: 0
  m_StaticEditorFlags: 0
  m_IsActive: 1
--- !u!1 &175878
GameObject:
  m_ObjectHideFlags: 1
  m_PrefabParentObject: {fileID: 0}
  m_PrefabInternal: {fileID: 100100000}
  serializedVersion: 4
  m_Component:
  - 4: {fileID: 475878}
  m_Layer: 0
  m_Name: Robot_RightHandPinky1
  m_TagString: Untagged
  m_Icon: {fileID: 0}
  m_NavMeshLayer: 0
  m_StaticEditorFlags: 0
  m_IsActive: 1
--- !u!1 &175880
GameObject:
  m_ObjectHideFlags: 1
  m_PrefabParentObject: {fileID: 0}
  m_PrefabInternal: {fileID: 100100000}
  serializedVersion: 4
  m_Component:
  - 4: {fileID: 475880}
  m_Layer: 0
  m_Name: Robot_LeftHandThumb3
  m_TagString: Untagged
  m_Icon: {fileID: 0}
  m_NavMeshLayer: 0
  m_StaticEditorFlags: 0
  m_IsActive: 1
--- !u!1 &175882
GameObject:
  m_ObjectHideFlags: 1
  m_PrefabParentObject: {fileID: 0}
  m_PrefabInternal: {fileID: 100100000}
  serializedVersion: 4
  m_Component:
  - 4: {fileID: 475882}
  m_Layer: 0
  m_Name: Robot_RightHandIndex3
  m_TagString: Untagged
  m_Icon: {fileID: 0}
  m_NavMeshLayer: 0
  m_StaticEditorFlags: 0
  m_IsActive: 1
--- !u!1 &175884
GameObject:
  m_ObjectHideFlags: 1
  m_PrefabParentObject: {fileID: 0}
  m_PrefabInternal: {fileID: 100100000}
  serializedVersion: 4
  m_Component:
  - 4: {fileID: 475884}
  m_Layer: 0
  m_Name: Robot_Spine3
  m_TagString: Untagged
  m_Icon: {fileID: 0}
  m_NavMeshLayer: 0
  m_StaticEditorFlags: 0
  m_IsActive: 1
--- !u!1 &175886
GameObject:
  m_ObjectHideFlags: 1
  m_PrefabParentObject: {fileID: 0}
  m_PrefabInternal: {fileID: 100100000}
  serializedVersion: 4
  m_Component:
  - 4: {fileID: 475886}
  m_Layer: 0
  m_Name: Robot_LeftInHandRing
  m_TagString: Untagged
  m_Icon: {fileID: 0}
  m_NavMeshLayer: 0
  m_StaticEditorFlags: 0
  m_IsActive: 1
--- !u!1 &175888
GameObject:
  m_ObjectHideFlags: 1
  m_PrefabParentObject: {fileID: 0}
  m_PrefabInternal: {fileID: 100100000}
  serializedVersion: 4
  m_Component:
  - 4: {fileID: 475888}
  - 96: {fileID: 9698346}
  m_Layer: 0
  m_Name: Robot_LeftHand
  m_TagString: Untagged
  m_Icon: {fileID: 0}
  m_NavMeshLayer: 0
  m_StaticEditorFlags: 0
  m_IsActive: 1
--- !u!1 &175890
GameObject:
  m_ObjectHideFlags: 1
  m_PrefabParentObject: {fileID: 0}
  m_PrefabInternal: {fileID: 100100000}
  serializedVersion: 4
  m_Component:
  - 4: {fileID: 475890}
  - 96: {fileID: 9698364}
  m_Layer: 0
  m_Name: Robot_RightHandRing4
  m_TagString: Untagged
  m_Icon: {fileID: 0}
  m_NavMeshLayer: 0
  m_StaticEditorFlags: 0
  m_IsActive: 1
--- !u!1 &175892
GameObject:
  m_ObjectHideFlags: 1
  m_PrefabParentObject: {fileID: 0}
  m_PrefabInternal: {fileID: 100100000}
  serializedVersion: 4
  m_Component:
  - 4: {fileID: 475892}
  m_Layer: 0
  m_Name: Robot_RightHandIndex2
  m_TagString: Untagged
  m_Icon: {fileID: 0}
  m_NavMeshLayer: 0
  m_StaticEditorFlags: 0
  m_IsActive: 1
--- !u!1 &175894
GameObject:
  m_ObjectHideFlags: 1
  m_PrefabParentObject: {fileID: 0}
  m_PrefabInternal: {fileID: 100100000}
  serializedVersion: 4
  m_Component:
  - 4: {fileID: 475894}
  m_Layer: 0
  m_Name: Robot_LeftHandThumb2
  m_TagString: Untagged
  m_Icon: {fileID: 0}
  m_NavMeshLayer: 0
  m_StaticEditorFlags: 0
  m_IsActive: 1
--- !u!1 &175896
GameObject:
  m_ObjectHideFlags: 1
  m_PrefabParentObject: {fileID: 0}
  m_PrefabInternal: {fileID: 100100000}
  serializedVersion: 4
  m_Component:
  - 4: {fileID: 475896}
  m_Layer: 0
  m_Name: Robot_RightInHandIndex
  m_TagString: Untagged
  m_Icon: {fileID: 0}
  m_NavMeshLayer: 0
  m_StaticEditorFlags: 0
  m_IsActive: 1
--- !u!1 &175898
GameObject:
  m_ObjectHideFlags: 1
  m_PrefabParentObject: {fileID: 0}
  m_PrefabInternal: {fileID: 100100000}
  serializedVersion: 4
  m_Component:
  - 4: {fileID: 475898}
  m_Layer: 0
  m_Name: Robot_RightToeBase
  m_TagString: Untagged
  m_Icon: {fileID: 0}
  m_NavMeshLayer: 0
  m_StaticEditorFlags: 0
  m_IsActive: 1
--- !u!1 &175902
GameObject:
  m_ObjectHideFlags: 1
  m_PrefabParentObject: {fileID: 0}
  m_PrefabInternal: {fileID: 100100000}
  serializedVersion: 4
  m_Component:
  - 4: {fileID: 475902}
  m_Layer: 0
  m_Name: Robot_LeftHandMiddle2
  m_TagString: Untagged
  m_Icon: {fileID: 0}
  m_NavMeshLayer: 0
  m_StaticEditorFlags: 0
  m_IsActive: 1
--- !u!1 &175904
GameObject:
  m_ObjectHideFlags: 1
  m_PrefabParentObject: {fileID: 0}
  m_PrefabInternal: {fileID: 100100000}
  serializedVersion: 4
  m_Component:
  - 4: {fileID: 475904}
  m_Layer: 0
  m_Name: Robot_LeftHandPinky3
  m_TagString: Untagged
  m_Icon: {fileID: 0}
  m_NavMeshLayer: 0
  m_StaticEditorFlags: 0
  m_IsActive: 1
--- !u!1 &175906
GameObject:
  m_ObjectHideFlags: 1
  m_PrefabParentObject: {fileID: 0}
  m_PrefabInternal: {fileID: 100100000}
  serializedVersion: 4
  m_Component:
  - 4: {fileID: 475906}
  m_Layer: 0
  m_Name: Robot_RightShoulder
  m_TagString: Untagged
  m_Icon: {fileID: 0}
  m_NavMeshLayer: 0
  m_StaticEditorFlags: 0
  m_IsActive: 1
--- !u!1 &175908
GameObject:
  m_ObjectHideFlags: 1
  m_PrefabParentObject: {fileID: 0}
  m_PrefabInternal: {fileID: 100100000}
  serializedVersion: 4
  m_Component:
  - 4: {fileID: 475908}
  m_Layer: 0
  m_Name: Robot_RightArm
  m_TagString: Untagged
  m_Icon: {fileID: 0}
  m_NavMeshLayer: 0
  m_StaticEditorFlags: 0
  m_IsActive: 1
--- !u!1 &175910
GameObject:
  m_ObjectHideFlags: 1
  m_PrefabParentObject: {fileID: 0}
  m_PrefabInternal: {fileID: 100100000}
  serializedVersion: 4
  m_Component:
  - 4: {fileID: 475910}
  m_Layer: 0
  m_Name: Robot_LeftInHandMiddle
  m_TagString: Untagged
  m_Icon: {fileID: 0}
  m_NavMeshLayer: 0
  m_StaticEditorFlags: 0
  m_IsActive: 1
--- !u!1 &175912
GameObject:
  m_ObjectHideFlags: 1
  m_PrefabParentObject: {fileID: 0}
  m_PrefabInternal: {fileID: 100100000}
  serializedVersion: 4
  m_Component:
  - 4: {fileID: 475912}
  m_Layer: 0
  m_Name: Robot_Spine2
  m_TagString: Untagged
  m_Icon: {fileID: 0}
  m_NavMeshLayer: 0
  m_StaticEditorFlags: 0
  m_IsActive: 1
--- !u!1 &175914
GameObject:
  m_ObjectHideFlags: 1
  m_PrefabParentObject: {fileID: 0}
  m_PrefabInternal: {fileID: 100100000}
  serializedVersion: 4
  m_Component:
  - 4: {fileID: 475914}
  m_Layer: 0
  m_Name: Robot_RightHandThumb2
  m_TagString: Untagged
  m_Icon: {fileID: 0}
  m_NavMeshLayer: 0
  m_StaticEditorFlags: 0
  m_IsActive: 1
--- !u!1 &175916
GameObject:
  m_ObjectHideFlags: 1
  m_PrefabParentObject: {fileID: 0}
  m_PrefabInternal: {fileID: 100100000}
  serializedVersion: 4
  m_Component:
  - 4: {fileID: 475916}
  m_Layer: 0
  m_Name: Robot_LeftHandIndex2
  m_TagString: Untagged
  m_Icon: {fileID: 0}
  m_NavMeshLayer: 0
  m_StaticEditorFlags: 0
  m_IsActive: 1
--- !u!1 &175918
GameObject:
  m_ObjectHideFlags: 1
  m_PrefabParentObject: {fileID: 0}
  m_PrefabInternal: {fileID: 100100000}
  serializedVersion: 4
  m_Component:
  - 4: {fileID: 475918}
  m_Layer: 0
  m_Name: Robot_RightInHandPinky
  m_TagString: Untagged
  m_Icon: {fileID: 0}
  m_NavMeshLayer: 0
  m_StaticEditorFlags: 0
  m_IsActive: 1
--- !u!1 &175920
GameObject:
  m_ObjectHideFlags: 1
  m_PrefabParentObject: {fileID: 0}
  m_PrefabInternal: {fileID: 100100000}
  serializedVersion: 4
  m_Component:
  - 4: {fileID: 475920}
  m_Layer: 0
  m_Name: Robot_Neck
  m_TagString: Untagged
  m_Icon: {fileID: 0}
  m_NavMeshLayer: 0
  m_StaticEditorFlags: 0
  m_IsActive: 1
--- !u!1 &175922
GameObject:
  m_ObjectHideFlags: 1
  m_PrefabParentObject: {fileID: 0}
  m_PrefabInternal: {fileID: 100100000}
  serializedVersion: 4
  m_Component:
  - 4: {fileID: 475922}
  m_Layer: 0
  m_Name: Robot_RightHandThumb1
  m_TagString: Untagged
  m_Icon: {fileID: 0}
  m_NavMeshLayer: 0
  m_StaticEditorFlags: 0
  m_IsActive: 1
--- !u!1 &175924
GameObject:
  m_ObjectHideFlags: 1
  m_PrefabParentObject: {fileID: 0}
  m_PrefabInternal: {fileID: 100100000}
  serializedVersion: 4
  m_Component:
  - 4: {fileID: 475924}
  - 96: {fileID: 9698350}
  m_Layer: 0
  m_Name: Robot_LeftHandThumb4
  m_TagString: Untagged
  m_Icon: {fileID: 0}
  m_NavMeshLayer: 0
  m_StaticEditorFlags: 0
  m_IsActive: 1
--- !u!1 &175926
GameObject:
  m_ObjectHideFlags: 1
  m_PrefabParentObject: {fileID: 0}
  m_PrefabInternal: {fileID: 100100000}
  serializedVersion: 4
  m_Component:
  - 4: {fileID: 475926}
  - 96: {fileID: 9698348}
  m_Layer: 0
  m_Name: Robot_RightHandThumb4
  m_TagString: Untagged
  m_Icon: {fileID: 0}
  m_NavMeshLayer: 0
  m_StaticEditorFlags: 0
  m_IsActive: 1
--- !u!1 &175928
GameObject:
  m_ObjectHideFlags: 1
  m_PrefabParentObject: {fileID: 0}
  m_PrefabInternal: {fileID: 100100000}
  serializedVersion: 4
  m_Component:
  - 4: {fileID: 475928}
  m_Layer: 0
  m_Name: Robot_RightInHandMiddle
  m_TagString: Untagged
  m_Icon: {fileID: 0}
  m_NavMeshLayer: 0
  m_StaticEditorFlags: 0
  m_IsActive: 1
--- !u!1 &175930
GameObject:
  m_ObjectHideFlags: 1
  m_PrefabParentObject: {fileID: 0}
  m_PrefabInternal: {fileID: 100100000}
  serializedVersion: 4
  m_Component:
  - 4: {fileID: 475930}
  m_Layer: 0
  m_Name: Robot_LeftHandMiddle1
  m_TagString: Untagged
  m_Icon: {fileID: 0}
  m_NavMeshLayer: 0
  m_StaticEditorFlags: 0
  m_IsActive: 1
--- !u!1 &175932
GameObject:
  m_ObjectHideFlags: 1
  m_PrefabParentObject: {fileID: 0}
  m_PrefabInternal: {fileID: 100100000}
  serializedVersion: 4
  m_Component:
  - 4: {fileID: 475932}
  m_Layer: 0
  m_Name: Robot_LeftHandIndex1
  m_TagString: Untagged
  m_Icon: {fileID: 0}
  m_NavMeshLayer: 0
  m_StaticEditorFlags: 0
  m_IsActive: 1
--- !u!1 &175934
GameObject:
  m_ObjectHideFlags: 1
  m_PrefabParentObject: {fileID: 0}
  m_PrefabInternal: {fileID: 100100000}
  serializedVersion: 4
  m_Component:
  - 4: {fileID: 475934}
  m_Layer: 0
  m_Name: Robot_LeftLeg
  m_TagString: Untagged
  m_Icon: {fileID: 0}
  m_NavMeshLayer: 0
  m_StaticEditorFlags: 0
  m_IsActive: 1
--- !u!1 &175936
GameObject:
  m_ObjectHideFlags: 1
  m_PrefabParentObject: {fileID: 0}
  m_PrefabInternal: {fileID: 100100000}
  serializedVersion: 4
  m_Component:
  - 4: {fileID: 475936}
  m_Layer: 0
  m_Name: Robot_LeftHandThumb1
  m_TagString: Untagged
  m_Icon: {fileID: 0}
  m_NavMeshLayer: 0
  m_StaticEditorFlags: 0
  m_IsActive: 1
--- !u!1 &175938
GameObject:
  m_ObjectHideFlags: 1
  m_PrefabParentObject: {fileID: 0}
  m_PrefabInternal: {fileID: 100100000}
  serializedVersion: 4
  m_Component:
  - 4: {fileID: 475938}
  m_Layer: 0
  m_Name: Robot_Head
  m_TagString: Untagged
  m_Icon: {fileID: 0}
  m_NavMeshLayer: 0
  m_StaticEditorFlags: 0
  m_IsActive: 1
--- !u!1 &175940
GameObject:
  m_ObjectHideFlags: 1
  m_PrefabParentObject: {fileID: 0}
  m_PrefabInternal: {fileID: 100100000}
  serializedVersion: 4
  m_Component:
  - 4: {fileID: 475940}
  - 96: {fileID: 9698352}
  m_Layer: 0
  m_Name: Robot_RightHandIndex4
  m_TagString: Untagged
  m_Icon: {fileID: 0}
  m_NavMeshLayer: 0
  m_StaticEditorFlags: 0
  m_IsActive: 1
--- !u!1 &175942
GameObject:
  m_ObjectHideFlags: 1
  m_PrefabParentObject: {fileID: 0}
  m_PrefabInternal: {fileID: 100100000}
  serializedVersion: 4
  m_Component:
  - 4: {fileID: 475942}
  m_Layer: 0
  m_Name: Robot_Head_End
  m_TagString: Untagged
  m_Icon: {fileID: 0}
  m_NavMeshLayer: 0
  m_StaticEditorFlags: 0
  m_IsActive: 1
--- !u!1 &175944
GameObject:
  m_ObjectHideFlags: 1
  m_PrefabParentObject: {fileID: 0}
  m_PrefabInternal: {fileID: 100100000}
  serializedVersion: 4
  m_Component:
  - 4: {fileID: 475944}
  m_Layer: 0
  m_Name: Robot_RightLeg
  m_TagString: Untagged
  m_Icon: {fileID: 0}
  m_NavMeshLayer: 0
  m_StaticEditorFlags: 0
  m_IsActive: 1
--- !u!1 &175946
GameObject:
  m_ObjectHideFlags: 1
  m_PrefabParentObject: {fileID: 0}
  m_PrefabInternal: {fileID: 100100000}
  serializedVersion: 4
  m_Component:
  - 4: {fileID: 475946}
  m_Layer: 0
  m_Name: Robot_RightHandMiddle1
  m_TagString: Untagged
  m_Icon: {fileID: 0}
  m_NavMeshLayer: 0
  m_StaticEditorFlags: 0
  m_IsActive: 1
--- !u!1 &175948
GameObject:
  m_ObjectHideFlags: 1
  m_PrefabParentObject: {fileID: 0}
  m_PrefabInternal: {fileID: 100100000}
  serializedVersion: 4
  m_Component:
  - 4: {fileID: 475948}
  - 96: {fileID: 9698366}
  m_Layer: 0
  m_Name: Robot_LeftHandRing4
  m_TagString: Untagged
  m_Icon: {fileID: 0}
  m_NavMeshLayer: 0
  m_StaticEditorFlags: 0
  m_IsActive: 1
--- !u!1 &175950
GameObject:
  m_ObjectHideFlags: 1
  m_PrefabParentObject: {fileID: 0}
  m_PrefabInternal: {fileID: 100100000}
  serializedVersion: 4
  m_Component:
  - 4: {fileID: 475950}
  m_Layer: 0
  m_Name: Robot_RightHandRing1
  m_TagString: Untagged
  m_Icon: {fileID: 0}
  m_NavMeshLayer: 0
  m_StaticEditorFlags: 0
  m_IsActive: 1
--- !u!1 &175952
GameObject:
  m_ObjectHideFlags: 1
  m_PrefabParentObject: {fileID: 0}
  m_PrefabInternal: {fileID: 100100000}
  serializedVersion: 4
  m_Component:
  - 4: {fileID: 475952}
  m_Layer: 0
  m_Name: Robot_RightUpLeg
  m_TagString: Untagged
  m_Icon: {fileID: 0}
  m_NavMeshLayer: 0
  m_StaticEditorFlags: 0
  m_IsActive: 1
--- !u!1 &175954
GameObject:
  m_ObjectHideFlags: 1
  m_PrefabParentObject: {fileID: 0}
  m_PrefabInternal: {fileID: 100100000}
  serializedVersion: 4
  m_Component:
  - 4: {fileID: 475954}
  m_Layer: 0
  m_Name: Robot_RightHandMiddle3
  m_TagString: Untagged
  m_Icon: {fileID: 0}
  m_NavMeshLayer: 0
  m_StaticEditorFlags: 0
  m_IsActive: 1
--- !u!1 &175956
GameObject:
  m_ObjectHideFlags: 1
  m_PrefabParentObject: {fileID: 0}
  m_PrefabInternal: {fileID: 100100000}
  serializedVersion: 4
  m_Component:
  - 4: {fileID: 475956}
  m_Layer: 0
  m_Name: Robot_LeftHandPinky1
  m_TagString: Untagged
  m_Icon: {fileID: 0}
  m_NavMeshLayer: 0
  m_StaticEditorFlags: 0
  m_IsActive: 1
--- !u!1 &175958
GameObject:
  m_ObjectHideFlags: 1
  m_PrefabParentObject: {fileID: 0}
  m_PrefabInternal: {fileID: 100100000}
  serializedVersion: 4
  m_Component:
  - 4: {fileID: 475958}
  - 96: {fileID: 9698358}
  m_Layer: 0
  m_Name: Robot_LeftHandMiddle4
  m_TagString: Untagged
  m_Icon: {fileID: 0}
  m_NavMeshLayer: 0
  m_StaticEditorFlags: 0
  m_IsActive: 1
--- !u!1 &175960
GameObject:
  m_ObjectHideFlags: 1
  m_PrefabParentObject: {fileID: 0}
  m_PrefabInternal: {fileID: 100100000}
  serializedVersion: 4
  m_Component:
  - 4: {fileID: 475960}
  - 96: {fileID: 9698344}
  m_Layer: 0
  m_Name: Robot_RightHand
  m_TagString: Untagged
  m_Icon: {fileID: 0}
  m_NavMeshLayer: 0
  m_StaticEditorFlags: 0
  m_IsActive: 1
--- !u!1 &175962
GameObject:
  m_ObjectHideFlags: 1
  m_PrefabParentObject: {fileID: 0}
  m_PrefabInternal: {fileID: 100100000}
  serializedVersion: 4
  m_Component:
  - 4: {fileID: 475962}
  m_Layer: 0
  m_Name: Robot_RightHandPinky3
  m_TagString: Untagged
  m_Icon: {fileID: 0}
  m_NavMeshLayer: 0
  m_StaticEditorFlags: 0
  m_IsActive: 1
--- !u!1 &175964
GameObject:
  m_ObjectHideFlags: 0
  m_PrefabParentObject: {fileID: 0}
  m_PrefabInternal: {fileID: 100100000}
  serializedVersion: 4
  m_Component:
  - 4: {fileID: 475964}
  m_Layer: 0
  m_Name: Robot_References
  m_TagString: Untagged
  m_Icon: {fileID: 0}
  m_NavMeshLayer: 0
  m_StaticEditorFlags: 0
  m_IsActive: 1
--- !u!1 &175966
GameObject:
  m_ObjectHideFlags: 1
  m_PrefabParentObject: {fileID: 0}
  m_PrefabInternal: {fileID: 100100000}
  serializedVersion: 4
  m_Component:
  - 4: {fileID: 475966}
  - 96: {fileID: 9698362}
  m_Layer: 0
  m_Name: Robot_LeftHandPinky4
  m_TagString: Untagged
  m_Icon: {fileID: 0}
  m_NavMeshLayer: 0
  m_StaticEditorFlags: 0
  m_IsActive: 1
--- !u!1 &175968
GameObject:
  m_ObjectHideFlags: 1
  m_PrefabParentObject: {fileID: 0}
  m_PrefabInternal: {fileID: 100100000}
  serializedVersion: 4
  m_Component:
  - 4: {fileID: 475968}
  m_Layer: 0
  m_Name: Robot_LeftHandMiddle3
  m_TagString: Untagged
  m_Icon: {fileID: 0}
  m_NavMeshLayer: 0
  m_StaticEditorFlags: 0
  m_IsActive: 1
--- !u!1 &175970
GameObject:
  m_ObjectHideFlags: 1
  m_PrefabParentObject: {fileID: 0}
  m_PrefabInternal: {fileID: 100100000}
  serializedVersion: 4
  m_Component:
  - 4: {fileID: 475970}
  m_Layer: 0
  m_Name: Robot_RightHandMiddle2
  m_TagString: Untagged
  m_Icon: {fileID: 0}
  m_NavMeshLayer: 0
  m_StaticEditorFlags: 0
  m_IsActive: 1
--- !u!1 &175972
GameObject:
  m_ObjectHideFlags: 1
  m_PrefabParentObject: {fileID: 0}
  m_PrefabInternal: {fileID: 100100000}
  serializedVersion: 4
  m_Component:
  - 4: {fileID: 475972}
  m_Layer: 0
  m_Name: Robot_RightHandPinky2
  m_TagString: Untagged
  m_Icon: {fileID: 0}
  m_NavMeshLayer: 0
  m_StaticEditorFlags: 0
  m_IsActive: 1
--- !u!1 &175974
GameObject:
  m_ObjectHideFlags: 1
  m_PrefabParentObject: {fileID: 0}
  m_PrefabInternal: {fileID: 100100000}
  serializedVersion: 4
  m_Component:
  - 4: {fileID: 475974}
  m_Layer: 0
  m_Name: Robot_LeftToeBase
  m_TagString: Untagged
  m_Icon: {fileID: 0}
  m_NavMeshLayer: 0
  m_StaticEditorFlags: 0
  m_IsActive: 1
--- !u!1 &175976
GameObject:
  m_ObjectHideFlags: 1
  m_PrefabParentObject: {fileID: 0}
  m_PrefabInternal: {fileID: 100100000}
  serializedVersion: 4
  m_Component:
  - 4: {fileID: 475976}
  - 96: {fileID: 9698354}
  m_Layer: 0
  m_Name: Robot_LeftHandIndex4
  m_TagString: Untagged
  m_Icon: {fileID: 0}
  m_NavMeshLayer: 0
  m_StaticEditorFlags: 0
  m_IsActive: 1
--- !u!1 &175978
GameObject:
  m_ObjectHideFlags: 1
  m_PrefabParentObject: {fileID: 0}
  m_PrefabInternal: {fileID: 100100000}
  serializedVersion: 4
  m_Component:
  - 4: {fileID: 475978}
  m_Layer: 0
  m_Name: Robot_Hips
  m_TagString: Untagged
  m_Icon: {fileID: 0}
  m_NavMeshLayer: 0
  m_StaticEditorFlags: 0
  m_IsActive: 1
--- !u!1 &175980
GameObject:
  m_ObjectHideFlags: 1
  m_PrefabParentObject: {fileID: 0}
  m_PrefabInternal: {fileID: 100100000}
  serializedVersion: 4
  m_Component:
  - 4: {fileID: 475980}
  m_Layer: 0
  m_Name: Robot_LeftHandIndex3
  m_TagString: Untagged
  m_Icon: {fileID: 0}
  m_NavMeshLayer: 0
  m_StaticEditorFlags: 0
  m_IsActive: 1
--- !u!1 &175982
GameObject:
  m_ObjectHideFlags: 1
  m_PrefabParentObject: {fileID: 0}
  m_PrefabInternal: {fileID: 100100000}
  serializedVersion: 4
  m_Component:
  - 4: {fileID: 475982}
  m_Layer: 0
  m_Name: Robot_LeftUpLeg
  m_TagString: Untagged
  m_Icon: {fileID: 0}
  m_NavMeshLayer: 0
  m_StaticEditorFlags: 0
  m_IsActive: 1
--- !u!1 &175984
GameObject:
  m_ObjectHideFlags: 1
  m_PrefabParentObject: {fileID: 0}
  m_PrefabInternal: {fileID: 100100000}
  serializedVersion: 4
  m_Component:
  - 4: {fileID: 475984}
  m_Layer: 0
  m_Name: Robot_Reference
  m_TagString: Untagged
  m_Icon: {fileID: 0}
  m_NavMeshLayer: 0
  m_StaticEditorFlags: 0
  m_IsActive: 1
--- !u!1 &175986
GameObject:
  m_ObjectHideFlags: 1
  m_PrefabParentObject: {fileID: 0}
  m_PrefabInternal: {fileID: 100100000}
  serializedVersion: 4
  m_Component:
  - 4: {fileID: 475986}
  m_Layer: 0
  m_Name: Robot_LeftArm
  m_TagString: Untagged
  m_Icon: {fileID: 0}
  m_NavMeshLayer: 0
  m_StaticEditorFlags: 0
  m_IsActive: 1
--- !u!4 &416038
Transform:
  m_ObjectHideFlags: 1
  m_PrefabParentObject: {fileID: 0}
  m_PrefabInternal: {fileID: 100100000}
  m_GameObject: {fileID: 116038}
  m_LocalRotation: {x: 0, y: -0, z: 0, w: 1}
  m_LocalPosition: {x: 0, y: 0, z: 0}
  m_LocalScale: {x: 1, y: 1, z: 1}
  m_Children: []
  m_Father: {fileID: 475874}
  m_RootOrder: 0
--- !u!4 &441562
Transform:
  m_ObjectHideFlags: 1
  m_PrefabParentObject: {fileID: 0}
  m_PrefabInternal: {fileID: 100100000}
  m_GameObject: {fileID: 141562}
  m_LocalRotation: {x: 0, y: -0, z: 0, w: 1}
  m_LocalPosition: {x: 0, y: 0, z: 0}
  m_LocalScale: {x: 1, y: 1, z: 1}
  m_Children: []
  m_Father: {fileID: 475874}
  m_RootOrder: 2
--- !u!4 &475836
Transform:
  m_ObjectHideFlags: 1
  m_PrefabParentObject: {fileID: 0}
  m_PrefabInternal: {fileID: 100100000}
  m_GameObject: {fileID: 175836}
  m_LocalRotation: {x: 0, y: -0, z: -0, w: 1}
  m_LocalPosition: {x: 0.25876004, y: 0, z: 0}
  m_LocalScale: {x: 1, y: 1, z: 1}
  m_Children:
  - {fileID: 475960}
  m_Father: {fileID: 475908}
  m_RootOrder: 0
--- !u!4 &475838
Transform:
  m_ObjectHideFlags: 1
  m_PrefabParentObject: {fileID: 0}
  m_PrefabInternal: {fileID: 100100000}
  m_GameObject: {fileID: 175838}
  m_LocalRotation: {x: 0, y: -0, z: -0, w: 1}
  m_LocalPosition: {x: 0.03472366, y: 0.000028686523, z: -0.00020205259}
  m_LocalScale: {x: 1, y: 1, z: 1}
  m_Children:
  - {fileID: 475926}
  m_Father: {fileID: 475914}
  m_RootOrder: 0
--- !u!4 &475840
Transform:
  m_ObjectHideFlags: 1
  m_PrefabParentObject: {fileID: 0}
  m_PrefabInternal: {fileID: 100100000}
  m_GameObject: {fileID: 175840}
  m_LocalRotation: {x: 0, y: -0, z: -0, w: 1}
  m_LocalPosition: {x: 0.070869066, y: -0.0012400817, z: 0.013564706}
  m_LocalScale: {x: 1, y: 1, z: 1}
  m_Children:
  - {fileID: 475892}
  m_Father: {fileID: 475896}
  m_RootOrder: 0
--- !u!4 &475842
Transform:
  m_ObjectHideFlags: 1
  m_PrefabParentObject: {fileID: 0}
  m_PrefabInternal: {fileID: 100100000}
  m_GameObject: {fileID: 175842}
  m_LocalRotation: {x: 0, y: -0, z: -0, w: 1}
  m_LocalPosition: {x: 0.026656875, y: -0.0027400206, z: -0.0005033262}
  m_LocalScale: {x: 1, y: 1, z: 1}
  m_Children: []
  m_Father: {fileID: 475954}
  m_RootOrder: 0
--- !u!4 &475844
Transform:
  m_ObjectHideFlags: 1
  m_PrefabParentObject: {fileID: 0}
  m_PrefabInternal: {fileID: 100100000}
  m_GameObject: {fileID: 175844}
  m_LocalRotation: {x: 0, y: -0, z: -0, w: 1}
  m_LocalPosition: {x: -0.043752592, y: 0.0068923947, z: 0.026853435}
  m_LocalScale: {x: 1, y: 1, z: 1}
  m_Children:
  - {fileID: 475932}
  m_Father: {fileID: 475888}
  m_RootOrder: 1
--- !u!4 &475846
Transform:
  m_ObjectHideFlags: 1
  m_PrefabParentObject: {fileID: 0}
  m_PrefabInternal: {fileID: 100100000}
  m_GameObject: {fileID: 175846}
  m_LocalRotation: {x: 0, y: -0, z: -0, w: 1}
  m_LocalPosition: {x: 0.046512604, y: -0.0043777465, z: 0.00012611627}
  m_LocalScale: {x: 1, y: 1, z: 1}
  m_Children:
  - {fileID: 475862}
  m_Father: {fileID: 475950}
  m_RootOrder: 0
--- !u!4 &475848
Transform:
  m_ObjectHideFlags: 1
  m_PrefabParentObject: {fileID: 0}
  m_PrefabInternal: {fileID: 100100000}
  m_GameObject: {fileID: 175848}
  m_LocalRotation: {x: 0, y: -0, z: -0, w: 1}
  m_LocalPosition: {x: -0.2587603, y: 0, z: 0}
  m_LocalScale: {x: 1, y: 1, z: 1}
  m_Children:
  - {fileID: 475888}
  m_Father: {fileID: 475986}
  m_RootOrder: 0
--- !u!4 &475850
Transform:
  m_ObjectHideFlags: 1
  m_PrefabParentObject: {fileID: 0}
  m_PrefabInternal: {fileID: 100100000}
  m_GameObject: {fileID: 175850}
  m_LocalRotation: {x: 0, y: -0, z: -0, w: 1}
  m_LocalPosition: {x: -0.04904938, y: 0.0406308, z: -0.012485122}
  m_LocalScale: {x: 1, y: 1, z: 1}
  m_Children:
  - {fileID: 475986}
  m_Father: {fileID: 475884}
  m_RootOrder: 0
--- !u!4 &475852
Transform:
  m_ObjectHideFlags: 1
  m_PrefabParentObject: {fileID: 0}
  m_PrefabInternal: {fileID: 100100000}
  m_GameObject: {fileID: 175852}
  m_LocalRotation: {x: 0, y: -0, z: -0, w: 1}
  m_LocalPosition: {x: 0.0222126, y: -0.0022802735, z: 0.00006594181}
  m_LocalScale: {x: 1, y: 1, z: 1}
  m_Children: []
  m_Father: {fileID: 475962}
  m_RootOrder: 0
--- !u!4 &475854
Transform:
  m_ObjectHideFlags: 1
  m_PrefabParentObject: {fileID: 0}
  m_PrefabInternal: {fileID: 100100000}
  m_GameObject: {fileID: 175854}
  m_LocalRotation: {x: 0, y: -0, z: -0, w: 1}
  m_LocalPosition: {x: -0.042913206, y: 0.006371307, z: -0.016307002}
  m_LocalScale: {x: 1, y: 1, z: 1}
  m_Children:
  - {fileID: 475956}
  m_Father: {fileID: 475888}
  m_RootOrder: 3
--- !u!4 &475856
Transform:
  m_ObjectHideFlags: 1
  m_PrefabParentObject: {fileID: 0}
  m_PrefabInternal: {fileID: 100100000}
  m_GameObject: {fileID: 175856}
  m_LocalRotation: {x: 0, y: -0, z: -0, w: 1}
  m_LocalPosition: {x: 1.7684579e-15, y: 0.096092984, z: 0.0000000023841857}
  m_LocalScale: {x: 1, y: 1, z: 1}
  m_Children:
  - {fileID: 475876}
  m_Father: {fileID: 475978}
  m_RootOrder: 2
--- !u!4 &475858
Transform:
  m_ObjectHideFlags: 1
  m_PrefabParentObject: {fileID: 0}
  m_PrefabInternal: {fileID: 100100000}
  m_GameObject: {fileID: 175858}
  m_LocalRotation: {x: 0, y: -0, z: -0, w: 1}
  m_LocalPosition: {x: 0.004437618, y: -0.46711624, z: -0.0025090335}
  m_LocalScale: {x: 1, y: 1, z: 1}
  m_Children:
  - {fileID: 475974}
  m_Father: {fileID: 475934}
  m_RootOrder: 0
--- !u!4 &475860
Transform:
  m_ObjectHideFlags: 1
  m_PrefabParentObject: {fileID: 0}
  m_PrefabInternal: {fileID: 100100000}
  m_GameObject: {fileID: 175860}
  m_LocalRotation: {x: 0, y: -0, z: -0, w: 1}
  m_LocalPosition: {x: -0.06295448, y: -0.0003025818, z: -0.0065211784}
  m_LocalScale: {x: 1, y: 1, z: 1}
  m_Children:
  - {fileID: 475868}
  m_Father: {fileID: 475886}
  m_RootOrder: 0
--- !u!4 &475862
Transform:
  m_ObjectHideFlags: 1
  m_PrefabParentObject: {fileID: 0}
  m_PrefabInternal: {fileID: 100100000}
  m_GameObject: {fileID: 175862}
  m_LocalRotation: {x: 0, y: -0, z: -0, w: 1}
  m_LocalPosition: {x: 0.032289885, y: -0.0028092957, z: -0.00015483856}
  m_LocalScale: {x: 1, y: 1, z: 1}
  m_Children:
  - {fileID: 475890}
  m_Father: {fileID: 475846}
  m_RootOrder: 0
--- !u!4 &475864
Transform:
  m_ObjectHideFlags: 1
  m_PrefabParentObject: {fileID: 0}
  m_PrefabInternal: {fileID: 100100000}
  m_GameObject: {fileID: 175864}
  m_LocalRotation: {x: 0, y: -0, z: -0, w: 1}
  m_LocalPosition: {x: -0.03232788, y: -0.0023251341, z: 0.000018806457}
  m_LocalScale: {x: 1, y: 1, z: 1}
  m_Children:
  - {fileID: 475948}
  m_Father: {fileID: 475868}
  m_RootOrder: 0
--- !u!4 &475866
Transform:
  m_ObjectHideFlags: 1
  m_PrefabParentObject: {fileID: 0}
  m_PrefabInternal: {fileID: 100100000}
  m_GameObject: {fileID: 175866}
  m_LocalRotation: {x: 0, y: -0, z: -0, w: 1}
  m_LocalPosition: {x: -0.03736122, y: -0.002046814, z: 0.00010684967}
  m_LocalScale: {x: 1, y: 1, z: 1}
  m_Children:
  - {fileID: 475904}
  m_Father: {fileID: 475956}
  m_RootOrder: 0
--- !u!4 &475868
Transform:
  m_ObjectHideFlags: 1
  m_PrefabParentObject: {fileID: 0}
  m_PrefabInternal: {fileID: 100100000}
  m_GameObject: {fileID: 175868}
  m_LocalRotation: {x: 0, y: -0, z: -0, w: 1}
  m_LocalPosition: {x: -0.046582032, y: -0.0035731506, z: 0.000023219585}
  m_LocalScale: {x: 1, y: 1, z: 1}
  m_Children:
  - {fileID: 475864}
  m_Father: {fileID: 475860}
  m_RootOrder: 0
--- !u!4 &475870
Transform:
  m_ObjectHideFlags: 1
  m_PrefabParentObject: {fileID: 0}
  m_PrefabInternal: {fileID: 100100000}
  m_GameObject: {fileID: 175870}
  m_LocalRotation: {x: 0, y: -0, z: -0, w: 1}
  m_LocalPosition: {x: 0.045672074, y: 0.0073501584, z: -0.0017597997}
  m_LocalScale: {x: 1, y: 1, z: 1}
  m_Children:
  - {fileID: 475950}
  m_Father: {fileID: 475960}
  m_RootOrder: 4
--- !u!4 &475872
Transform:
  m_ObjectHideFlags: 1
  m_PrefabParentObject: {fileID: 0}
  m_PrefabInternal: {fileID: 100100000}
  m_GameObject: {fileID: 175872}
  m_LocalRotation: {x: 0, y: -0, z: -0, w: 1}
  m_LocalPosition: {x: -0.004437618, y: -0.46711624, z: -0.0025090335}
  m_LocalScale: {x: 1, y: 1, z: 1}
  m_Children:
  - {fileID: 475898}
  m_Father: {fileID: 475944}
  m_RootOrder: 0
--- !u!4 &475874
Transform:
  m_ObjectHideFlags: 1
  m_PrefabParentObject: {fileID: 0}
  m_PrefabInternal: {fileID: 100100000}
  m_GameObject: {fileID: 175874}
  m_LocalRotation: {x: 0, y: 0, z: 0, w: 1}
  m_LocalPosition: {x: 0, y: 0, z: 0}
  m_LocalScale: {x: 1, y: 1, z: 1}
  m_Children:
  - {fileID: 416038}
  - {fileID: 475964}
  - {fileID: 441562}
  m_Father: {fileID: 0}
  m_RootOrder: 0
--- !u!4 &475876
Transform:
  m_ObjectHideFlags: 1
  m_PrefabParentObject: {fileID: 0}
  m_PrefabInternal: {fileID: 100100000}
  m_GameObject: {fileID: 175876}
  m_LocalRotation: {x: 0, y: -0, z: -0, w: 1}
  m_LocalPosition: {x: -1.9845957e-15, y: 0.11258178, z: 0}
  m_LocalScale: {x: 1, y: 1, z: 1}
  m_Children:
  - {fileID: 475912}
  m_Father: {fileID: 475856}
  m_RootOrder: 0
--- !u!4 &475878
Transform:
  m_ObjectHideFlags: 1
  m_PrefabParentObject: {fileID: 0}
  m_PrefabInternal: {fileID: 100100000}
  m_GameObject: {fileID: 175878}
  m_LocalRotation: {x: 0, y: -0, z: -0, w: 1}
  m_LocalPosition: {x: 0.056183014, y: -0.00035995484, z: -0.014798107}
  m_LocalScale: {x: 1, y: 1, z: 1}
  m_Children:
  - {fileID: 475972}
  m_Father: {fileID: 475918}
  m_RootOrder: 0
--- !u!4 &475880
Transform:
  m_ObjectHideFlags: 1
  m_PrefabParentObject: {fileID: 0}
  m_PrefabInternal: {fileID: 100100000}
  m_GameObject: {fileID: 175880}
  m_LocalRotation: {x: 0, y: -0, z: -0, w: 1}
  m_LocalPosition: {x: -0.034724806, y: -0.000079650876, z: 0.000101220605}
  m_LocalScale: {x: 1, y: 1, z: 1}
  m_Children:
  - {fileID: 475924}
  m_Father: {fileID: 475894}
  m_RootOrder: 0
--- !u!4 &475882
Transform:
  m_ObjectHideFlags: 1
  m_PrefabParentObject: {fileID: 0}
  m_PrefabInternal: {fileID: 100100000}
  m_GameObject: {fileID: 175882}
  m_LocalRotation: {x: 0, y: -0, z: -0, w: 1}
  m_LocalPosition: {x: 0.027794037, y: -0.0017300415, z: -0.000012519359}
  m_LocalScale: {x: 1, y: 1, z: 1}
  m_Children:
  - {fileID: 475940}
  m_Father: {fileID: 475892}
  m_RootOrder: 0
--- !u!4 &475884
Transform:
  m_ObjectHideFlags: 1
  m_PrefabParentObject: {fileID: 0}
  m_PrefabInternal: {fileID: 100100000}
  m_GameObject: {fileID: 175884}
  m_LocalRotation: {x: 0, y: -0, z: -0, w: 1}
  m_LocalPosition: {x: -1.52742e-16, y: 0.117230676, z: 0.012485121}
  m_LocalScale: {x: 1, y: 1, z: 1}
  m_Children:
  - {fileID: 475850}
  - {fileID: 475920}
  - {fileID: 475906}
  m_Father: {fileID: 475912}
  m_RootOrder: 0
--- !u!4 &475886
Transform:
  m_ObjectHideFlags: 1
  m_PrefabParentObject: {fileID: 0}
  m_PrefabInternal: {fileID: 100100000}
  m_GameObject: {fileID: 175886}
  m_LocalRotation: {x: 0, y: -0, z: -0, w: 1}
  m_LocalPosition: {x: -0.04567215, y: 0.007352142, z: -0.0017597532}
  m_LocalScale: {x: 1, y: 1, z: 1}
  m_Children:
  - {fileID: 475860}
  m_Father: {fileID: 475888}
  m_RootOrder: 4
--- !u!4 &475888
Transform:
  m_ObjectHideFlags: 1
  m_PrefabParentObject: {fileID: 0}
  m_PrefabInternal: {fileID: 100100000}
  m_GameObject: {fileID: 175888}
  m_LocalRotation: {x: 0, y: -0, z: -0, w: 1}
  m_LocalPosition: {x: -0.28402027, y: 0, z: 0}
  m_LocalScale: {x: 1, y: 1, z: 1}
  m_Children:
  - {fileID: 475936}
  - {fileID: 475844}
  - {fileID: 475910}
  - {fileID: 475854}
  - {fileID: 475886}
  m_Father: {fileID: 475848}
  m_RootOrder: 0
--- !u!4 &475890
Transform:
  m_ObjectHideFlags: 1
  m_PrefabParentObject: {fileID: 0}
  m_PrefabInternal: {fileID: 100100000}
  m_GameObject: {fileID: 175890}
  m_LocalRotation: {x: 0, y: -0, z: -0, w: 1}
  m_LocalPosition: {x: 0.0249897, y: -0.002992096, z: -0.00024336099}
  m_LocalScale: {x: 1, y: 1, z: 1}
  m_Children: []
  m_Father: {fileID: 475862}
  m_RootOrder: 0
--- !u!4 &475892
Transform:
  m_ObjectHideFlags: 1
  m_PrefabParentObject: {fileID: 0}
  m_PrefabInternal: {fileID: 100100000}
  m_GameObject: {fileID: 175892}
  m_LocalRotation: {x: 0, y: -0, z: -0, w: 1}
  m_LocalPosition: {x: 0.049062192, y: -0.002389984, z: 0.00008839607}
  m_LocalScale: {x: 1, y: 1, z: 1}
  m_Children:
  - {fileID: 475882}
  m_Father: {fileID: 475840}
  m_RootOrder: 0
--- !u!4 &475894
Transform:
  m_ObjectHideFlags: 1
  m_PrefabParentObject: {fileID: 0}
  m_PrefabInternal: {fileID: 100100000}
  m_GameObject: {fileID: 175894}
  m_LocalRotation: {x: 0, y: -0, z: -0, w: 1}
  m_LocalPosition: {x: -0.049987946, y: 0.00012680053, z: -0.00012565851}
  m_LocalScale: {x: 1, y: 1, z: 1}
  m_Children:
  - {fileID: 475880}
  m_Father: {fileID: 475936}
  m_RootOrder: 0
--- !u!4 &475896
Transform:
  m_ObjectHideFlags: 1
  m_PrefabParentObject: {fileID: 0}
  m_PrefabInternal: {fileID: 100100000}
  m_GameObject: {fileID: 175896}
  m_LocalRotation: {x: 0, y: -0, z: -0, w: 1}
  m_LocalPosition: {x: 0.04375305, y: 0.006900177, z: 0.026853401}
  m_LocalScale: {x: 1, y: 1, z: 1}
  m_Children:
  - {fileID: 475840}
  m_Father: {fileID: 475960}
  m_RootOrder: 1
--- !u!4 &475898
Transform:
  m_ObjectHideFlags: 1
  m_PrefabParentObject: {fileID: 0}
  m_PrefabInternal: {fileID: 100100000}
  m_GameObject: {fileID: 175898}
  m_LocalRotation: {x: 0, y: -0, z: -0, w: 1}
  m_LocalPosition: {x: 0.000000085830685, y: -0.08017612, z: 0.121593356}
  m_LocalScale: {x: 1, y: 1, z: 1}
  m_Children: []
  m_Father: {fileID: 475872}
  m_RootOrder: 0
--- !u!4 &475902
Transform:
  m_ObjectHideFlags: 1
  m_PrefabParentObject: {fileID: 0}
  m_PrefabInternal: {fileID: 100100000}
  m_GameObject: {fileID: 175902}
  m_LocalRotation: {x: 0, y: -0, z: -0, w: 1}
  m_LocalPosition: {x: -0.053481977, y: -0.003643341, z: -0.00015678957}
  m_LocalScale: {x: 1, y: 1, z: 1}
  m_Children:
  - {fileID: 475968}
  m_Father: {fileID: 475930}
  m_RootOrder: 0
--- !u!4 &475904
Transform:
  m_ObjectHideFlags: 1
  m_PrefabParentObject: {fileID: 0}
  m_PrefabInternal: {fileID: 100100000}
  m_GameObject: {fileID: 175904}
  m_LocalRotation: {x: 0, y: -0, z: -0, w: 1}
  m_LocalPosition: {x: -0.02357231, y: -0.0017794799, z: -0.000118775366}
  m_LocalScale: {x: 1, y: 1, z: 1}
  m_Children:
  - {fileID: 475966}
  m_Father: {fileID: 475866}
  m_RootOrder: 0
--- !u!4 &475906
Transform:
  m_ObjectHideFlags: 1
  m_PrefabParentObject: {fileID: 0}
  m_PrefabInternal: {fileID: 100100000}
  m_GameObject: {fileID: 175906}
  m_LocalRotation: {x: 0, y: -0, z: -0, w: 1}
  m_LocalPosition: {x: 0.049049404, y: 0.04062805, z: -0.012485102}
  m_LocalScale: {x: 1, y: 1, z: 1}
  m_Children:
  - {fileID: 475908}
  m_Father: {fileID: 475884}
  m_RootOrder: 2
--- !u!4 &475908
Transform:
  m_ObjectHideFlags: 1
  m_PrefabParentObject: {fileID: 0}
  m_PrefabInternal: {fileID: 100100000}
  m_GameObject: {fileID: 175908}
  m_LocalRotation: {x: 0, y: -0, z: -0, w: 1}
  m_LocalPosition: {x: 0.1564886, y: 0, z: 0}
  m_LocalScale: {x: 1, y: 1, z: 1}
  m_Children:
  - {fileID: 475836}
  m_Father: {fileID: 475906}
  m_RootOrder: 0
--- !u!4 &475910
Transform:
  m_ObjectHideFlags: 1
  m_PrefabParentObject: {fileID: 0}
  m_PrefabInternal: {fileID: 100100000}
  m_GameObject: {fileID: 175910}
  m_LocalRotation: {x: 0, y: -0, z: -0, w: 1}
  m_LocalPosition: {x: -0.045923002, y: 0.0070205685, z: 0.010279348}
  m_LocalScale: {x: 1, y: 1, z: 1}
  m_Children:
  - {fileID: 475930}
  m_Father: {fileID: 475888}
  m_RootOrder: 2
--- !u!4 &475912
Transform:
  m_ObjectHideFlags: 1
  m_PrefabParentObject: {fileID: 0}
  m_PrefabInternal: {fileID: 100100000}
  m_GameObject: {fileID: 175912}
  m_LocalRotation: {x: 0, y: -0, z: -0, w: 1}
  m_LocalPosition: {x: 4.0527506e-16, y: 0.120330654, z: 0}
  m_LocalScale: {x: 1, y: 1, z: 1}
  m_Children:
  - {fileID: 475884}
  m_Father: {fileID: 475876}
  m_RootOrder: 0
--- !u!4 &475914
Transform:
  m_ObjectHideFlags: 1
  m_PrefabParentObject: {fileID: 0}
  m_PrefabInternal: {fileID: 100100000}
  m_GameObject: {fileID: 175914}
  m_LocalRotation: {x: 0, y: -0, z: -0, w: 1}
  m_LocalPosition: {x: 0.049988404, y: -0.000057678222, z: -0.0002239871}
  m_LocalScale: {x: 1, y: 1, z: 1}
  m_Children:
  - {fileID: 475838}
  m_Father: {fileID: 475922}
  m_RootOrder: 0
--- !u!4 &475916
Transform:
  m_ObjectHideFlags: 1
  m_PrefabParentObject: {fileID: 0}
  m_PrefabInternal: {fileID: 100100000}
  m_GameObject: {fileID: 175916}
  m_LocalRotation: {x: 0, y: -0, z: -0, w: 1}
  m_LocalPosition: {x: -0.049062345, y: -0.002390747, z: -0.00012319088}
  m_LocalScale: {x: 1, y: 1, z: 1}
  m_Children:
  - {fileID: 475980}
  m_Father: {fileID: 475932}
  m_RootOrder: 0
--- !u!4 &475918
Transform:
  m_ObjectHideFlags: 1
  m_PrefabParentObject: {fileID: 0}
  m_PrefabInternal: {fileID: 100100000}
  m_GameObject: {fileID: 175918}
  m_LocalRotation: {x: 0, y: -0, z: -0, w: 1}
  m_LocalPosition: {x: 0.04291298, y: 0.0063700867, z: -0.016306998}
  m_LocalScale: {x: 1, y: 1, z: 1}
  m_Children:
  - {fileID: 475878}
  m_Father: {fileID: 475960}
  m_RootOrder: 3
--- !u!4 &475920
Transform:
  m_ObjectHideFlags: 1
  m_PrefabParentObject: {fileID: 0}
  m_PrefabInternal: {fileID: 100100000}
  m_GameObject: {fileID: 175920}
  m_LocalRotation: {x: 0, y: -0, z: -0, w: 1}
  m_LocalPosition: {x: 1.1879386e-16, y: 0.120701596, z: -0.012485121}
  m_LocalScale: {x: 1, y: 1, z: 1}
  m_Children:
  - {fileID: 475938}
  m_Father: {fileID: 475884}
  m_RootOrder: 1
--- !u!4 &475922
Transform:
  m_ObjectHideFlags: 1
  m_PrefabParentObject: {fileID: 0}
  m_PrefabInternal: {fileID: 100100000}
  m_GameObject: {fileID: 175922}
  m_LocalRotation: {x: 0, y: -0, z: -0, w: 1}
  m_LocalPosition: {x: 0.033787, y: 0.0025801086, z: 0.042356003}
  m_LocalScale: {x: 1, y: 1, z: 1}
  m_Children:
  - {fileID: 475914}
  m_Father: {fileID: 475960}
  m_RootOrder: 0
--- !u!4 &475924
Transform:
  m_ObjectHideFlags: 1
  m_PrefabParentObject: {fileID: 0}
  m_PrefabInternal: {fileID: 100100000}
  m_GameObject: {fileID: 175924}
  m_LocalRotation: {x: 0, y: -0, z: -0, w: 1}
  m_LocalPosition: {x: -0.029778136, y: 0.000015716552, z: 0.00024009227}
  m_LocalScale: {x: 1, y: 1, z: 1}
  m_Children: []
  m_Father: {fileID: 475880}
  m_RootOrder: 0
--- !u!4 &475926
Transform:
  m_ObjectHideFlags: 1
  m_PrefabParentObject: {fileID: 0}
  m_PrefabInternal: {fileID: 100100000}
  m_GameObject: {fileID: 175926}
  m_LocalRotation: {x: 0, y: -0, z: -0, w: 1}
  m_LocalPosition: {x: 0.029777298, y: 0.000115966795, z: 0.00026114463}
  m_LocalScale: {x: 1, y: 1, z: 1}
  m_Children: []
  m_Father: {fileID: 475838}
  m_RootOrder: 0
--- !u!4 &475928
Transform:
  m_ObjectHideFlags: 1
  m_PrefabParentObject: {fileID: 0}
  m_PrefabInternal: {fileID: 100100000}
  m_GameObject: {fileID: 175928}
  m_LocalRotation: {x: 0, y: -0, z: -0, w: 1}
  m_LocalPosition: {x: 0.04592308, y: 0.0070201107, z: 0.010279321}
  m_LocalScale: {x: 1, y: 1, z: 1}
  m_Children:
  - {fileID: 475946}
  m_Father: {fileID: 475960}
  m_RootOrder: 2
--- !u!4 &475930
Transform:
  m_ObjectHideFlags: 1
  m_PrefabParentObject: {fileID: 0}
  m_PrefabInternal: {fileID: 100100000}
  m_GameObject: {fileID: 175930}
  m_LocalRotation: {x: 0, y: -0, z: -0, w: 1}
  m_LocalPosition: {x: -0.07022827, y: -0.0011416626, z: 0.004263849}
  m_LocalScale: {x: 1, y: 1, z: 1}
  m_Children:
  - {fileID: 475902}
  m_Father: {fileID: 475910}
  m_RootOrder: 0
--- !u!4 &475932
Transform:
  m_ObjectHideFlags: 1
  m_PrefabParentObject: {fileID: 0}
  m_PrefabInternal: {fileID: 100100000}
  m_GameObject: {fileID: 175932}
  m_LocalRotation: {x: 0, y: -0, z: -0, w: 1}
  m_LocalPosition: {x: -0.07086868, y: -0.0012365723, z: 0.013564725}
  m_LocalScale: {x: 1, y: 1, z: 1}
  m_Children:
  - {fileID: 475916}
  m_Father: {fileID: 475844}
  m_RootOrder: 0
--- !u!4 &475934
Transform:
  m_ObjectHideFlags: 1
  m_PrefabParentObject: {fileID: 0}
  m_PrefabInternal: {fileID: 100100000}
  m_GameObject: {fileID: 175934}
  m_LocalRotation: {x: 0, y: -0, z: -0, w: 1}
  m_LocalPosition: {x: -0.012004041, y: -0.4565072, z: -0.015162091}
  m_LocalScale: {x: 1, y: 1, z: 1}
  m_Children:
  - {fileID: 475858}
  m_Father: {fileID: 475982}
  m_RootOrder: 0
--- !u!4 &475936
Transform:
  m_ObjectHideFlags: 1
  m_PrefabParentObject: {fileID: 0}
  m_PrefabInternal: {fileID: 100100000}
  m_GameObject: {fileID: 175936}
  m_LocalRotation: {x: 0, y: -0, z: -0, w: 1}
  m_LocalPosition: {x: -0.033786695, y: 0.002574768, z: 0.04235597}
  m_LocalScale: {x: 1, y: 1, z: 1}
  m_Children:
  - {fileID: 475894}
  m_Father: {fileID: 475888}
  m_RootOrder: 0
--- !u!4 &475938
Transform:
  m_ObjectHideFlags: 1
  m_PrefabParentObject: {fileID: 0}
  m_PrefabInternal: {fileID: 100100000}
  m_GameObject: {fileID: 175938}
  m_LocalRotation: {x: 0, y: -0, z: -0, w: 1}
  m_LocalPosition: {x: -3.1183214e-16, y: 0.100040585, z: 0}
  m_LocalScale: {x: 1, y: 1, z: 1}
  m_Children:
  - {fileID: 475942}
  m_Father: {fileID: 475920}
  m_RootOrder: 0
--- !u!4 &475940
Transform:
  m_ObjectHideFlags: 1
  m_PrefabParentObject: {fileID: 0}
  m_PrefabInternal: {fileID: 100100000}
  m_GameObject: {fileID: 175940}
  m_LocalRotation: {x: 0, y: -0, z: -0, w: 1}
  m_LocalPosition: {x: 0.024410933, y: -0.002639923, z: -0.00018211364}
  m_LocalScale: {x: 1, y: 1, z: 1}
  m_Children: []
  m_Father: {fileID: 475882}
  m_RootOrder: 0
--- !u!4 &475942
Transform:
  m_ObjectHideFlags: 1
  m_PrefabParentObject: {fileID: 0}
  m_PrefabInternal: {fileID: 100100000}
  m_GameObject: {fileID: 175942}
  m_LocalRotation: {x: 0, y: -0, z: -0, w: 1}
  m_LocalPosition: {x: 1.5254398e-16, y: 0.16325943, z: 0}
  m_LocalScale: {x: 1, y: 1, z: 1}
  m_Children: []
  m_Father: {fileID: 475938}
  m_RootOrder: 0
--- !u!4 &475944
Transform:
  m_ObjectHideFlags: 1
  m_PrefabParentObject: {fileID: 0}
  m_PrefabInternal: {fileID: 100100000}
  m_GameObject: {fileID: 175944}
  m_LocalRotation: {x: 0, y: -0, z: -0, w: 1}
  m_LocalPosition: {x: 0.012004041, y: -0.4565072, z: -0.015162091}
  m_LocalScale: {x: 1, y: 1, z: 1}
  m_Children:
  - {fileID: 475872}
  m_Father: {fileID: 475952}
  m_RootOrder: 0
--- !u!4 &475946
Transform:
  m_ObjectHideFlags: 1
  m_PrefabParentObject: {fileID: 0}
  m_PrefabInternal: {fileID: 100100000}
  m_GameObject: {fileID: 175946}
  m_LocalRotation: {x: 0, y: -0, z: -0, w: 1}
  m_LocalPosition: {x: 0.070227966, y: -0.0011398315, z: 0.004263851}
  m_LocalScale: {x: 1, y: 1, z: 1}
  m_Children:
  - {fileID: 475970}
  m_Father: {fileID: 475928}
  m_RootOrder: 0
--- !u!4 &475948
Transform:
  m_ObjectHideFlags: 1
  m_PrefabParentObject: {fileID: 0}
  m_PrefabInternal: {fileID: 100100000}
  m_GameObject: {fileID: 175948}
  m_LocalRotation: {x: 0, y: -0, z: -0, w: 1}
  m_LocalPosition: {x: -0.02503746, y: -0.002580261, z: -0.00006345034}
  m_LocalScale: {x: 1, y: 1, z: 1}
  m_Children: []
  m_Father: {fileID: 475864}
  m_RootOrder: 0
--- !u!4 &475950
Transform:
  m_ObjectHideFlags: 1
  m_PrefabParentObject: {fileID: 0}
  m_PrefabInternal: {fileID: 100100000}
  m_GameObject: {fileID: 175950}
  m_LocalRotation: {x: 0, y: -0, z: -0, w: 1}
  m_LocalPosition: {x: 0.062955014, y: -0.0002999878, z: -0.0065212}
  m_LocalScale: {x: 1, y: 1, z: 1}
  m_Children:
  - {fileID: 475846}
  m_Father: {fileID: 475870}
  m_RootOrder: 0
--- !u!4 &475952
Transform:
  m_ObjectHideFlags: 1
  m_PrefabParentObject: {fileID: 0}
  m_PrefabInternal: {fileID: 100100000}
  m_GameObject: {fileID: 175952}
  m_LocalRotation: {x: 0, y: -0, z: -0, w: 1}
  m_LocalPosition: {x: 0.1055315, y: -0.0880629, z: -0.0085835215}
  m_LocalScale: {x: 1, y: 1, z: 1}
  m_Children:
  - {fileID: 475944}
  m_Father: {fileID: 475978}
  m_RootOrder: 1
--- !u!4 &475954
Transform:
  m_ObjectHideFlags: 1
  m_PrefabParentObject: {fileID: 0}
  m_PrefabInternal: {fileID: 100100000}
  m_GameObject: {fileID: 175954}
  m_LocalRotation: {x: 0, y: -0, z: -0, w: 1}
  m_LocalPosition: {x: 0.033493422, y: -0.0025901794, z: 0.00008589432}
  m_LocalScale: {x: 1, y: 1, z: 1}
  m_Children:
  - {fileID: 475842}
  m_Father: {fileID: 475970}
  m_RootOrder: 0
--- !u!4 &475956
Transform:
  m_ObjectHideFlags: 1
  m_PrefabParentObject: {fileID: 0}
  m_PrefabInternal: {fileID: 100100000}
  m_GameObject: {fileID: 175956}
  m_LocalRotation: {x: 0, y: -0, z: -0, w: 1}
  m_LocalPosition: {x: -0.056182478, y: -0.00036621094, z: -0.014798068}
  m_LocalScale: {x: 1, y: 1, z: 1}
  m_Children:
  - {fileID: 475866}
  m_Father: {fileID: 475854}
  m_RootOrder: 0
--- !u!4 &475958
Transform:
  m_ObjectHideFlags: 1
  m_PrefabParentObject: {fileID: 0}
  m_PrefabInternal: {fileID: 100100000}
  m_GameObject: {fileID: 175958}
  m_LocalRotation: {x: 0, y: -0, z: -0, w: 1}
  m_LocalPosition: {x: -0.026661986, y: -0.0027456665, z: 0.000001848638}
  m_LocalScale: {x: 1, y: 1, z: 1}
  m_Children: []
  m_Father: {fileID: 475968}
  m_RootOrder: 0
--- !u!4 &475960
Transform:
  m_ObjectHideFlags: 1
  m_PrefabParentObject: {fileID: 0}
  m_PrefabInternal: {fileID: 100100000}
  m_GameObject: {fileID: 175960}
  m_LocalRotation: {x: 0, y: -0, z: -0, w: 1}
  m_LocalPosition: {x: 0.28401995, y: 0, z: 0}
  m_LocalScale: {x: 1, y: 1, z: 1}
  m_Children:
  - {fileID: 475922}
  - {fileID: 475896}
  - {fileID: 475928}
  - {fileID: 475918}
  - {fileID: 475870}
  m_Father: {fileID: 475836}
  m_RootOrder: 0
--- !u!4 &475962
Transform:
  m_ObjectHideFlags: 1
  m_PrefabParentObject: {fileID: 0}
  m_PrefabInternal: {fileID: 100100000}
  m_GameObject: {fileID: 175962}
  m_LocalRotation: {x: 0, y: -0, z: -0, w: 1}
  m_LocalPosition: {x: 0.023571929, y: -0.0017774963, z: 0.00009027958}
  m_LocalScale: {x: 1, y: 1, z: 1}
  m_Children:
  - {fileID: 475852}
  m_Father: {fileID: 475972}
  m_RootOrder: 0
--- !u!4 &475964
Transform:
  m_ObjectHideFlags: 1
  m_PrefabParentObject: {fileID: 0}
  m_PrefabInternal: {fileID: 100100000}
  m_GameObject: {fileID: 175964}
  m_LocalRotation: {x: 0, y: -0, z: 0, w: 1}
  m_LocalPosition: {x: 0, y: 0, z: 0}
  m_LocalScale: {x: 1, y: 1, z: 1}
  m_Children:
  - {fileID: 475984}
  m_Father: {fileID: 475874}
  m_RootOrder: 1
--- !u!4 &475966
Transform:
  m_ObjectHideFlags: 1
  m_PrefabParentObject: {fileID: 0}
  m_PrefabInternal: {fileID: 100100000}
  m_GameObject: {fileID: 175966}
  m_LocalRotation: {x: 0, y: -0, z: -0, w: 1}
  m_LocalPosition: {x: -0.022208022, y: -0.00232193, z: 0.000012555122}
  m_LocalScale: {x: 1, y: 1, z: 1}
  m_Children: []
  m_Father: {fileID: 475904}
  m_RootOrder: 0
--- !u!4 &475968
Transform:
  m_ObjectHideFlags: 1
  m_PrefabParentObject: {fileID: 0}
  m_PrefabInternal: {fileID: 100100000}
  m_GameObject: {fileID: 175968}
  m_LocalRotation: {x: 0, y: -0, z: -0, w: 1}
  m_LocalPosition: {x: -0.0334935, y: -0.0025872802, z: 0.00014287948}
  m_LocalScale: {x: 1, y: 1, z: 1}
  m_Children:
  - {fileID: 475958}
  m_Father: {fileID: 475902}
  m_RootOrder: 0
--- !u!4 &475970
Transform:
  m_ObjectHideFlags: 1
  m_PrefabParentObject: {fileID: 0}
  m_PrefabInternal: {fileID: 100100000}
  m_GameObject: {fileID: 175970}
  m_LocalRotation: {x: 0, y: -0, z: -0, w: 1}
  m_LocalPosition: {x: 0.053482816, y: -0.003639984, z: -0.00013987467}
  m_LocalScale: {x: 1, y: 1, z: 1}
  m_Children:
  - {fileID: 475954}
  m_Father: {fileID: 475946}
  m_RootOrder: 0
--- !u!4 &475972
Transform:
  m_ObjectHideFlags: 1
  m_PrefabParentObject: {fileID: 0}
  m_PrefabInternal: {fileID: 100100000}
  m_GameObject: {fileID: 175972}
  m_LocalRotation: {x: 0, y: -0, z: -0, w: 1}
  m_LocalPosition: {x: 0.03736191, y: -0.0020390318, z: -0.00017241}
  m_LocalScale: {x: 1, y: 1, z: 1}
  m_Children:
  - {fileID: 475962}
  m_Father: {fileID: 475878}
  m_RootOrder: 0
--- !u!4 &475974
Transform:
  m_ObjectHideFlags: 1
  m_PrefabParentObject: {fileID: 0}
  m_PrefabInternal: {fileID: 100100000}
  m_GameObject: {fileID: 175974}
  m_LocalRotation: {x: 0, y: -0, z: -0, w: 1}
  m_LocalPosition: {x: -0.000000085830685, y: -0.08017612, z: 0.121593356}
  m_LocalScale: {x: 1, y: 1, z: 1}
  m_Children: []
  m_Father: {fileID: 475858}
  m_RootOrder: 0
--- !u!4 &475976
Transform:
  m_ObjectHideFlags: 1
  m_PrefabParentObject: {fileID: 0}
  m_PrefabInternal: {fileID: 100100000}
  m_GameObject: {fileID: 175976}
  m_LocalRotation: {x: 0, y: -0, z: -0, w: 1}
  m_LocalPosition: {x: -0.02441162, y: -0.002638092, z: 0.00006413936}
  m_LocalScale: {x: 1, y: 1, z: 1}
  m_Children: []
  m_Father: {fileID: 475980}
  m_RootOrder: 0
--- !u!4 &475978
Transform:
  m_ObjectHideFlags: 1
  m_PrefabParentObject: {fileID: 0}
  m_PrefabInternal: {fileID: 100100000}
  m_GameObject: {fileID: 175978}
  m_LocalRotation: {x: 0, y: -0, z: -0, w: 1}
  m_LocalPosition: {x: -0, y: 1.1138859, z: -0.012485122}
  m_LocalScale: {x: 1, y: 1, z: 1}
  m_Children:
  - {fileID: 475982}
  - {fileID: 475952}
  - {fileID: 475856}
  m_Father: {fileID: 475984}
  m_RootOrder: 0
--- !u!4 &475980
Transform:
  m_ObjectHideFlags: 1
  m_PrefabParentObject: {fileID: 0}
  m_PrefabInternal: {fileID: 100100000}
  m_GameObject: {fileID: 175980}
  m_LocalRotation: {x: 0, y: -0, z: -0, w: 1}
  m_LocalPosition: {x: -0.027793732, y: -0.0017312622, z: 0.00010981321}
  m_LocalScale: {x: 1, y: 1, z: 1}
  m_Children:
  - {fileID: 475976}
  m_Father: {fileID: 475916}
  m_RootOrder: 0
--- !u!4 &475982
Transform:
  m_ObjectHideFlags: 1
  m_PrefabParentObject: {fileID: 0}
  m_PrefabInternal: {fileID: 100100000}
  m_GameObject: {fileID: 175982}
  m_LocalRotation: {x: 0, y: -0, z: -0, w: 1}
  m_LocalPosition: {x: -0.1055315, y: -0.0880629, z: -0.0085835215}
  m_LocalScale: {x: 1, y: 1, z: 1}
  m_Children:
  - {fileID: 475934}
  m_Father: {fileID: 475978}
  m_RootOrder: 0
--- !u!4 &475984
Transform:
  m_ObjectHideFlags: 1
  m_PrefabParentObject: {fileID: 0}
  m_PrefabInternal: {fileID: 100100000}
  m_GameObject: {fileID: 175984}
  m_LocalRotation: {x: 0, y: -0, z: -0, w: 1}
  m_LocalPosition: {x: -0, y: 0, z: 0}
  m_LocalScale: {x: 1, y: 1, z: 1}
  m_Children:
  - {fileID: 475978}
  m_Father: {fileID: 475964}
  m_RootOrder: 0
--- !u!4 &475986
Transform:
  m_ObjectHideFlags: 1
  m_PrefabParentObject: {fileID: 0}
  m_PrefabInternal: {fileID: 100100000}
  m_GameObject: {fileID: 175986}
  m_LocalRotation: {x: 0, y: -0, z: -0, w: 1}
  m_LocalPosition: {x: -0.15648837, y: 0, z: 0}
  m_LocalScale: {x: 1, y: 1, z: 1}
  m_Children:
  - {fileID: 475848}
  m_Father: {fileID: 475850}
  m_RootOrder: 0
--- !u!95 &9575986
Animator:
  serializedVersion: 3
  m_ObjectHideFlags: 1
  m_PrefabParentObject: {fileID: 0}
  m_PrefabInternal: {fileID: 100100000}
  m_GameObject: {fileID: 175874}
  m_Enabled: 1
  m_Avatar: {fileID: 9000000, guid: 51f1d9d1a4930964186764b8a192fb9d, type: 3}
  m_Controller: {fileID: 0}
  m_CullingMode: 1
  m_UpdateMode: 0
  m_ApplyRootMotion: 1
  m_LinearVelocityBlending: 0
  m_WarningMessage: 
  m_HasTransformHierarchy: 1
  m_AllowConstantClipSamplingOptimization: 1
--- !u!96 &9698344
TrailRenderer:
  m_ObjectHideFlags: 1
  m_PrefabParentObject: {fileID: 0}
  m_PrefabInternal: {fileID: 100100000}
  m_GameObject: {fileID: 175960}
  m_Enabled: 0
  m_CastShadows: 0
  m_ReceiveShadows: 0
  m_Materials:
  - {fileID: 2100000, guid: d50d2de30e9ff4d469ec63e04439af93, type: 2}
  m_SubsetIndices: 
  m_StaticBatchRoot: {fileID: 0}
  m_UseLightProbes: 0
  m_ReflectionProbeUsage: 1
  m_ProbeAnchor: {fileID: 0}
  m_ScaleInLightmap: 1
  m_PreserveUVs: 0
  m_IgnoreNormalsForChartDetection: 0
  m_ImportantGI: 0
  m_MinimumChartSize: 4
  m_AutoUVMaxDistance: 0.5
  m_AutoUVMaxAngle: 89
  m_LightmapParameters: {fileID: 0}
  m_SortingLayerID: 0
  m_SortingOrder: 0
  m_Time: 0.6
  m_StartWidth: 0.03
  m_EndWidth: 0.005
  m_Colors:
    m_Color[0]:
      serializedVersion: 2
      rgba: 4278190335
    m_Color[1]:
      serializedVersion: 2
      rgba: 4278190335
    m_Color[2]:
      serializedVersion: 2
      rgba: 4278190335
    m_Color[3]:
      serializedVersion: 2
      rgba: 4278190335
    m_Color[4]:
      serializedVersion: 2
      rgba: 255
  m_MinVertexDistance: 0.001
  m_Autodestruct: 0
--- !u!96 &9698346
TrailRenderer:
  m_ObjectHideFlags: 1
  m_PrefabParentObject: {fileID: 0}
  m_PrefabInternal: {fileID: 100100000}
  m_GameObject: {fileID: 175888}
  m_Enabled: 0
  m_CastShadows: 0
  m_ReceiveShadows: 0
  m_Materials:
  - {fileID: 2100000, guid: d50d2de30e9ff4d469ec63e04439af93, type: 2}
  m_SubsetIndices: 
  m_StaticBatchRoot: {fileID: 0}
  m_UseLightProbes: 0
  m_ReflectionProbeUsage: 1
  m_ProbeAnchor: {fileID: 0}
  m_ScaleInLightmap: 1
  m_PreserveUVs: 0
  m_IgnoreNormalsForChartDetection: 0
  m_ImportantGI: 0
  m_MinimumChartSize: 4
  m_AutoUVMaxDistance: 0.5
  m_AutoUVMaxAngle: 89
  m_LightmapParameters: {fileID: 0}
  m_SortingLayerID: 0
  m_SortingOrder: 0
  m_Time: 0.6
  m_StartWidth: 0.03
  m_EndWidth: 0.005
  m_Colors:
    m_Color[0]:
      serializedVersion: 2
      rgba: 4278190335
    m_Color[1]:
      serializedVersion: 2
      rgba: 4278190335
    m_Color[2]:
      serializedVersion: 2
      rgba: 4278190335
    m_Color[3]:
      serializedVersion: 2
      rgba: 4278190335
    m_Color[4]:
      serializedVersion: 2
      rgba: 255
  m_MinVertexDistance: 0.001
  m_Autodestruct: 0
--- !u!96 &9698348
TrailRenderer:
  m_ObjectHideFlags: 1
  m_PrefabParentObject: {fileID: 0}
  m_PrefabInternal: {fileID: 100100000}
  m_GameObject: {fileID: 175926}
  m_Enabled: 0
  m_CastShadows: 0
  m_ReceiveShadows: 0
  m_Materials:
  - {fileID: 2100000, guid: d50d2de30e9ff4d469ec63e04439af93, type: 2}
  m_SubsetIndices: 
  m_StaticBatchRoot: {fileID: 0}
  m_UseLightProbes: 0
  m_ReflectionProbeUsage: 1
  m_ProbeAnchor: {fileID: 0}
  m_ScaleInLightmap: 1
  m_PreserveUVs: 0
  m_IgnoreNormalsForChartDetection: 0
  m_ImportantGI: 0
  m_MinimumChartSize: 4
  m_AutoUVMaxDistance: 0.5
  m_AutoUVMaxAngle: 89
  m_LightmapParameters: {fileID: 0}
  m_SortingLayerID: 0
  m_SortingOrder: 0
  m_Time: 0.25
  m_StartWidth: 0.005
  m_EndWidth: 0.001
  m_Colors:
    m_Color[0]:
      serializedVersion: 2
      rgba: 4278190335
    m_Color[1]:
      serializedVersion: 2
      rgba: 4278190335
    m_Color[2]:
      serializedVersion: 2
      rgba: 4278190335
    m_Color[3]:
      serializedVersion: 2
      rgba: 4278190335
    m_Color[4]:
      serializedVersion: 2
      rgba: 255
  m_MinVertexDistance: 0.001
  m_Autodestruct: 0
--- !u!96 &9698350
TrailRenderer:
  m_ObjectHideFlags: 1
  m_PrefabParentObject: {fileID: 0}
  m_PrefabInternal: {fileID: 100100000}
  m_GameObject: {fileID: 175924}
  m_Enabled: 0
  m_CastShadows: 0
  m_ReceiveShadows: 0
  m_Materials:
  - {fileID: 2100000, guid: d50d2de30e9ff4d469ec63e04439af93, type: 2}
  m_SubsetIndices: 
  m_StaticBatchRoot: {fileID: 0}
  m_UseLightProbes: 0
  m_ReflectionProbeUsage: 1
  m_ProbeAnchor: {fileID: 0}
  m_ScaleInLightmap: 1
  m_PreserveUVs: 0
  m_IgnoreNormalsForChartDetection: 0
  m_ImportantGI: 0
  m_MinimumChartSize: 4
  m_AutoUVMaxDistance: 0.5
  m_AutoUVMaxAngle: 89
  m_LightmapParameters: {fileID: 0}
  m_SortingLayerID: 0
  m_SortingOrder: 0
  m_Time: 0.25
  m_StartWidth: 0.005
  m_EndWidth: 0.001
  m_Colors:
    m_Color[0]:
      serializedVersion: 2
      rgba: 4278190335
    m_Color[1]:
      serializedVersion: 2
      rgba: 4278190335
    m_Color[2]:
      serializedVersion: 2
      rgba: 4278190335
    m_Color[3]:
      serializedVersion: 2
      rgba: 4278190335
    m_Color[4]:
      serializedVersion: 2
      rgba: 255
  m_MinVertexDistance: 0.001
  m_Autodestruct: 0
--- !u!96 &9698352
TrailRenderer:
  m_ObjectHideFlags: 1
  m_PrefabParentObject: {fileID: 0}
  m_PrefabInternal: {fileID: 100100000}
  m_GameObject: {fileID: 175940}
  m_Enabled: 0
  m_CastShadows: 0
  m_ReceiveShadows: 0
  m_Materials:
  - {fileID: 2100000, guid: d50d2de30e9ff4d469ec63e04439af93, type: 2}
  m_SubsetIndices: 
  m_StaticBatchRoot: {fileID: 0}
  m_UseLightProbes: 0
  m_ReflectionProbeUsage: 1
  m_ProbeAnchor: {fileID: 0}
  m_ScaleInLightmap: 1
  m_PreserveUVs: 0
  m_IgnoreNormalsForChartDetection: 0
  m_ImportantGI: 0
  m_MinimumChartSize: 4
  m_AutoUVMaxDistance: 0.5
  m_AutoUVMaxAngle: 89
  m_LightmapParameters: {fileID: 0}
  m_SortingLayerID: 0
  m_SortingOrder: 0
  m_Time: 0.25
  m_StartWidth: 0.005
  m_EndWidth: 0.001
  m_Colors:
    m_Color[0]:
      serializedVersion: 2
      rgba: 4278255615
    m_Color[1]:
      serializedVersion: 2
      rgba: 4278255615
    m_Color[2]:
      serializedVersion: 2
      rgba: 4278255615
    m_Color[3]:
      serializedVersion: 2
      rgba: 4278255615
    m_Color[4]:
      serializedVersion: 2
      rgba: 65535
  m_MinVertexDistance: 0.001
  m_Autodestruct: 0
--- !u!96 &9698354
TrailRenderer:
  m_ObjectHideFlags: 1
  m_PrefabParentObject: {fileID: 0}
  m_PrefabInternal: {fileID: 100100000}
  m_GameObject: {fileID: 175976}
  m_Enabled: 0
  m_CastShadows: 0
  m_ReceiveShadows: 0
  m_Materials:
  - {fileID: 2100000, guid: d50d2de30e9ff4d469ec63e04439af93, type: 2}
  m_SubsetIndices: 
  m_StaticBatchRoot: {fileID: 0}
  m_UseLightProbes: 0
  m_ReflectionProbeUsage: 1
  m_ProbeAnchor: {fileID: 0}
  m_ScaleInLightmap: 1
  m_PreserveUVs: 0
  m_IgnoreNormalsForChartDetection: 0
  m_ImportantGI: 0
  m_MinimumChartSize: 4
  m_AutoUVMaxDistance: 0.5
  m_AutoUVMaxAngle: 89
  m_LightmapParameters: {fileID: 0}
  m_SortingLayerID: 0
  m_SortingOrder: 0
  m_Time: 0.25
  m_StartWidth: 0.005
  m_EndWidth: 0.001
  m_Colors:
    m_Color[0]:
      serializedVersion: 2
      rgba: 4278255615
    m_Color[1]:
      serializedVersion: 2
      rgba: 4278255615
    m_Color[2]:
      serializedVersion: 2
      rgba: 4278255615
    m_Color[3]:
      serializedVersion: 2
      rgba: 4278255615
    m_Color[4]:
      serializedVersion: 2
      rgba: 65535
  m_MinVertexDistance: 0.001
  m_Autodestruct: 0
--- !u!96 &9698356
TrailRenderer:
  m_ObjectHideFlags: 1
  m_PrefabParentObject: {fileID: 0}
  m_PrefabInternal: {fileID: 100100000}
  m_GameObject: {fileID: 175842}
  m_Enabled: 0
  m_CastShadows: 0
  m_ReceiveShadows: 0
  m_Materials:
  - {fileID: 2100000, guid: d50d2de30e9ff4d469ec63e04439af93, type: 2}
  m_SubsetIndices: 
  m_StaticBatchRoot: {fileID: 0}
  m_UseLightProbes: 0
  m_ReflectionProbeUsage: 1
  m_ProbeAnchor: {fileID: 0}
  m_ScaleInLightmap: 1
  m_PreserveUVs: 0
  m_IgnoreNormalsForChartDetection: 0
  m_ImportantGI: 0
  m_MinimumChartSize: 4
  m_AutoUVMaxDistance: 0.5
  m_AutoUVMaxAngle: 89
  m_LightmapParameters: {fileID: 0}
  m_SortingLayerID: 0
  m_SortingOrder: 0
  m_Time: 0.25
  m_StartWidth: 0.005
  m_EndWidth: 0.001
  m_Colors:
    m_Color[0]:
      serializedVersion: 2
      rgba: 4278224639
    m_Color[1]:
      serializedVersion: 2
      rgba: 4278224639
    m_Color[2]:
      serializedVersion: 2
      rgba: 4278224639
    m_Color[3]:
      serializedVersion: 2
      rgba: 4278224639
    m_Color[4]:
      serializedVersion: 2
      rgba: 34559
  m_MinVertexDistance: 0.001
  m_Autodestruct: 0
--- !u!96 &9698358
TrailRenderer:
  m_ObjectHideFlags: 1
  m_PrefabParentObject: {fileID: 0}
  m_PrefabInternal: {fileID: 100100000}
  m_GameObject: {fileID: 175958}
  m_Enabled: 0
  m_CastShadows: 0
  m_ReceiveShadows: 0
  m_Materials:
  - {fileID: 2100000, guid: d50d2de30e9ff4d469ec63e04439af93, type: 2}
  m_SubsetIndices: 
  m_StaticBatchRoot: {fileID: 0}
  m_UseLightProbes: 0
  m_ReflectionProbeUsage: 1
  m_ProbeAnchor: {fileID: 0}
  m_ScaleInLightmap: 1
  m_PreserveUVs: 0
  m_IgnoreNormalsForChartDetection: 0
  m_ImportantGI: 0
  m_MinimumChartSize: 4
  m_AutoUVMaxDistance: 0.5
  m_AutoUVMaxAngle: 89
  m_LightmapParameters: {fileID: 0}
  m_SortingLayerID: 0
  m_SortingOrder: 0
  m_Time: 0.25
  m_StartWidth: 0.005
  m_EndWidth: 0.001
  m_Colors:
    m_Color[0]:
      serializedVersion: 2
      rgba: 4278224639
    m_Color[1]:
      serializedVersion: 2
      rgba: 4278224639
    m_Color[2]:
      serializedVersion: 2
      rgba: 4278224639
    m_Color[3]:
      serializedVersion: 2
      rgba: 4278224639
    m_Color[4]:
      serializedVersion: 2
      rgba: 34559
  m_MinVertexDistance: 0.001
  m_Autodestruct: 0
--- !u!96 &9698360
TrailRenderer:
  m_ObjectHideFlags: 1
  m_PrefabParentObject: {fileID: 0}
  m_PrefabInternal: {fileID: 100100000}
  m_GameObject: {fileID: 175852}
  m_Enabled: 0
  m_CastShadows: 0
  m_ReceiveShadows: 0
  m_Materials:
  - {fileID: 2100000, guid: d50d2de30e9ff4d469ec63e04439af93, type: 2}
  m_SubsetIndices: 
  m_StaticBatchRoot: {fileID: 0}
  m_UseLightProbes: 0
  m_ReflectionProbeUsage: 1
  m_ProbeAnchor: {fileID: 0}
  m_ScaleInLightmap: 1
  m_PreserveUVs: 0
  m_IgnoreNormalsForChartDetection: 0
  m_ImportantGI: 0
  m_MinimumChartSize: 4
  m_AutoUVMaxDistance: 0.5
  m_AutoUVMaxAngle: 89
  m_LightmapParameters: {fileID: 0}
  m_SortingLayerID: 0
  m_SortingOrder: 0
  m_Time: 0.25
  m_StartWidth: 0.005
  m_EndWidth: 0.001
  m_Colors:
    m_Color[0]:
      serializedVersion: 2
      rgba: 4294901760
    m_Color[1]:
      serializedVersion: 2
      rgba: 4294901760
    m_Color[2]:
      serializedVersion: 2
      rgba: 4294901760
    m_Color[3]:
      serializedVersion: 2
      rgba: 4294901760
    m_Color[4]:
      serializedVersion: 2
      rgba: 16711680
  m_MinVertexDistance: 0.001
  m_Autodestruct: 0
--- !u!96 &9698362
TrailRenderer:
  m_ObjectHideFlags: 1
  m_PrefabParentObject: {fileID: 0}
  m_PrefabInternal: {fileID: 100100000}
  m_GameObject: {fileID: 175966}
  m_Enabled: 0
  m_CastShadows: 0
  m_ReceiveShadows: 0
  m_Materials:
  - {fileID: 2100000, guid: d50d2de30e9ff4d469ec63e04439af93, type: 2}
  m_SubsetIndices: 
  m_StaticBatchRoot: {fileID: 0}
  m_UseLightProbes: 0
  m_ReflectionProbeUsage: 1
  m_ProbeAnchor: {fileID: 0}
  m_ScaleInLightmap: 1
  m_PreserveUVs: 0
  m_IgnoreNormalsForChartDetection: 0
  m_ImportantGI: 0
  m_MinimumChartSize: 4
  m_AutoUVMaxDistance: 0.5
  m_AutoUVMaxAngle: 89
  m_LightmapParameters: {fileID: 0}
  m_SortingLayerID: 0
  m_SortingOrder: 0
  m_Time: 0.25
  m_StartWidth: 0.005
  m_EndWidth: 0.001
  m_Colors:
    m_Color[0]:
      serializedVersion: 2
      rgba: 4294901760
    m_Color[1]:
      serializedVersion: 2
      rgba: 4294901760
    m_Color[2]:
      serializedVersion: 2
      rgba: 4294901760
    m_Color[3]:
      serializedVersion: 2
      rgba: 4294901760
    m_Color[4]:
      serializedVersion: 2
      rgba: 16711680
  m_MinVertexDistance: 0.001
  m_Autodestruct: 0
--- !u!96 &9698364
TrailRenderer:
  m_ObjectHideFlags: 1
  m_PrefabParentObject: {fileID: 0}
  m_PrefabInternal: {fileID: 100100000}
  m_GameObject: {fileID: 175890}
  m_Enabled: 0
  m_CastShadows: 0
  m_ReceiveShadows: 0
  m_Materials:
  - {fileID: 2100000, guid: d50d2de30e9ff4d469ec63e04439af93, type: 2}
  m_SubsetIndices: 
  m_StaticBatchRoot: {fileID: 0}
  m_UseLightProbes: 0
  m_ReflectionProbeUsage: 1
  m_ProbeAnchor: {fileID: 0}
  m_ScaleInLightmap: 1
  m_PreserveUVs: 0
  m_IgnoreNormalsForChartDetection: 0
  m_ImportantGI: 0
  m_MinimumChartSize: 4
  m_AutoUVMaxDistance: 0.5
  m_AutoUVMaxAngle: 89
  m_LightmapParameters: {fileID: 0}
  m_SortingLayerID: 0
  m_SortingOrder: 0
  m_Time: 0.25
  m_StartWidth: 0.005
  m_EndWidth: 0.001
  m_Colors:
    m_Color[0]:
      serializedVersion: 2
      rgba: 4278255360
    m_Color[1]:
      serializedVersion: 2
      rgba: 4278255360
    m_Color[2]:
      serializedVersion: 2
      rgba: 4278255360
    m_Color[3]:
      serializedVersion: 2
      rgba: 4278255360
    m_Color[4]:
      serializedVersion: 2
      rgba: 65280
  m_MinVertexDistance: 0.001
  m_Autodestruct: 0
--- !u!96 &9698366
TrailRenderer:
  m_ObjectHideFlags: 1
  m_PrefabParentObject: {fileID: 0}
  m_PrefabInternal: {fileID: 100100000}
  m_GameObject: {fileID: 175948}
  m_Enabled: 0
  m_CastShadows: 0
  m_ReceiveShadows: 0
  m_Materials:
  - {fileID: 2100000, guid: d50d2de30e9ff4d469ec63e04439af93, type: 2}
  m_SubsetIndices: 
  m_StaticBatchRoot: {fileID: 0}
  m_UseLightProbes: 0
  m_ReflectionProbeUsage: 1
  m_ProbeAnchor: {fileID: 0}
  m_ScaleInLightmap: 1
  m_PreserveUVs: 0
  m_IgnoreNormalsForChartDetection: 0
  m_ImportantGI: 0
  m_MinimumChartSize: 4
  m_AutoUVMaxDistance: 0.5
  m_AutoUVMaxAngle: 89
  m_LightmapParameters: {fileID: 0}
  m_SortingLayerID: 0
  m_SortingOrder: 0
  m_Time: 0.25
  m_StartWidth: 0.005
  m_EndWidth: 0.001
  m_Colors:
    m_Color[0]:
      serializedVersion: 2
      rgba: 4278255360
    m_Color[1]:
      serializedVersion: 2
      rgba: 4278255360
    m_Color[2]:
      serializedVersion: 2
      rgba: 4278255360
    m_Color[3]:
      serializedVersion: 2
      rgba: 4278255360
    m_Color[4]:
      serializedVersion: 2
      rgba: 65280
  m_MinVertexDistance: 0.001
  m_Autodestruct: 0
--- !u!96 &9698368
TrailRenderer:
  m_ObjectHideFlags: 1
  m_PrefabParentObject: {fileID: 0}
  m_PrefabInternal: {fileID: 100100000}
  m_GameObject: {fileID: 175872}
  m_Enabled: 0
  m_CastShadows: 0
  m_ReceiveShadows: 0
  m_Materials:
  - {fileID: 2100000, guid: d50d2de30e9ff4d469ec63e04439af93, type: 2}
  m_SubsetIndices: 
  m_StaticBatchRoot: {fileID: 0}
  m_UseLightProbes: 0
  m_ReflectionProbeUsage: 1
  m_ProbeAnchor: {fileID: 0}
  m_ScaleInLightmap: 1
  m_PreserveUVs: 0
  m_IgnoreNormalsForChartDetection: 0
  m_ImportantGI: 0
  m_MinimumChartSize: 4
  m_AutoUVMaxDistance: 0.5
  m_AutoUVMaxAngle: 89
  m_LightmapParameters: {fileID: 0}
  m_SortingLayerID: 0
  m_SortingOrder: 0
  m_Time: 2
  m_StartWidth: 0.03
  m_EndWidth: 0.005
  m_Colors:
    m_Color[0]:
      serializedVersion: 2
      rgba: 4278255360
    m_Color[1]:
      serializedVersion: 2
      rgba: 4278255360
    m_Color[2]:
      serializedVersion: 2
      rgba: 4278255360
    m_Color[3]:
      serializedVersion: 2
      rgba: 4278255360
    m_Color[4]:
      serializedVersion: 2
      rgba: 65280
  m_MinVertexDistance: 0.001
  m_Autodestruct: 0
--- !u!96 &9698370
TrailRenderer:
  m_ObjectHideFlags: 1
  m_PrefabParentObject: {fileID: 0}
  m_PrefabInternal: {fileID: 100100000}
  m_GameObject: {fileID: 175858}
  m_Enabled: 0
  m_CastShadows: 0
  m_ReceiveShadows: 0
  m_Materials:
  - {fileID: 2100000, guid: d50d2de30e9ff4d469ec63e04439af93, type: 2}
  m_SubsetIndices: 
  m_StaticBatchRoot: {fileID: 0}
  m_UseLightProbes: 0
  m_ReflectionProbeUsage: 1
  m_ProbeAnchor: {fileID: 0}
  m_ScaleInLightmap: 1
  m_PreserveUVs: 0
  m_IgnoreNormalsForChartDetection: 0
  m_ImportantGI: 0
  m_MinimumChartSize: 4
  m_AutoUVMaxDistance: 0.5
  m_AutoUVMaxAngle: 89
  m_LightmapParameters: {fileID: 0}
  m_SortingLayerID: 0
  m_SortingOrder: 0
  m_Time: 2
  m_StartWidth: 0.03
  m_EndWidth: 0.005
  m_Colors:
    m_Color[0]:
      serializedVersion: 2
      rgba: 4278255360
    m_Color[1]:
      serializedVersion: 2
      rgba: 4278255360
    m_Color[2]:
      serializedVersion: 2
      rgba: 4278255360
    m_Color[3]:
      serializedVersion: 2
      rgba: 4278255360
    m_Color[4]:
      serializedVersion: 2
      rgba: 65280
  m_MinVertexDistance: 0.001
  m_Autodestruct: 0
--- !u!114 &11475986
MonoBehaviour:
  m_ObjectHideFlags: 1
  m_PrefabParentObject: {fileID: 0}
  m_PrefabInternal: {fileID: 100100000}
  m_GameObject: {fileID: 175874}
  m_Enabled: 1
  m_EditorHideFlags: 0
  m_Script: {fileID: 11500000, guid: 41173daca41f9a64b8552925c6a3c363, type: 3}
  m_Name: 
  m_EditorClassIdentifier: 
  address: 3132372e302e302e31
  port: 7001
  socketType: 0
  actorID: 0
  connectToAxis: 0
  boundAnimator: {fileID: 0}
  physicalUpdate: 0
--- !u!137 &13716038
SkinnedMeshRenderer:
  m_ObjectHideFlags: 1
  m_PrefabParentObject: {fileID: 0}
  m_PrefabInternal: {fileID: 100100000}
  m_GameObject: {fileID: 116038}
  m_Enabled: 1
  m_CastShadows: 1
  m_ReceiveShadows: 1
  m_Materials:
  - {fileID: 2100000, guid: 059808e352772f344a74ac4670e94328, type: 2}
  - {fileID: 2100000, guid: 8ef2255196812d2488bb0bdc8f0e978e, type: 2}
  m_SubsetIndices: 
  m_StaticBatchRoot: {fileID: 0}
  m_UseLightProbes: 0
  m_ReflectionProbeUsage: 1
  m_ProbeAnchor: {fileID: 0}
  m_ScaleInLightmap: 1
  m_PreserveUVs: 0
  m_IgnoreNormalsForChartDetection: 0
  m_ImportantGI: 0
  m_MinimumChartSize: 4
  m_AutoUVMaxDistance: 0.5
  m_AutoUVMaxAngle: 89
  m_LightmapParameters: {fileID: 0}
  m_SortingLayerID: 0
  m_SortingOrder: 0
  serializedVersion: 2
  m_Quality: 0
  m_UpdateWhenOffscreen: 0
  m_Mesh: {fileID: 4300002, guid: 51f1d9d1a4930964186764b8a192fb9d, type: 3}
  m_Bones:
  - {fileID: 475978}
  - {fileID: 475856}
  - {fileID: 475876}
  - {fileID: 475912}
  - {fileID: 475884}
  - {fileID: 475920}
  - {fileID: 475938}
  - {fileID: 475942}
  - {fileID: 475850}
  - {fileID: 475986}
  - {fileID: 475848}
  - {fileID: 475888}
  - {fileID: 475936}
  - {fileID: 475894}
  - {fileID: 475880}
  - {fileID: 475924}
  - {fileID: 475844}
  - {fileID: 475932}
  - {fileID: 475916}
  - {fileID: 475980}
  - {fileID: 475976}
  - {fileID: 475910}
  - {fileID: 475930}
  - {fileID: 475902}
  - {fileID: 475968}
  - {fileID: 475958}
  - {fileID: 475886}
  - {fileID: 475860}
  - {fileID: 475868}
  - {fileID: 475864}
  - {fileID: 475948}
  - {fileID: 475854}
  - {fileID: 475956}
  - {fileID: 475866}
  - {fileID: 475904}
  - {fileID: 475966}
  - {fileID: 475906}
  - {fileID: 475908}
  - {fileID: 475836}
  - {fileID: 475960}
  - {fileID: 475922}
  - {fileID: 475914}
  - {fileID: 475838}
  - {fileID: 475926}
  - {fileID: 475896}
  - {fileID: 475840}
  - {fileID: 475892}
  - {fileID: 475882}
  - {fileID: 475940}
  - {fileID: 475928}
  - {fileID: 475946}
  - {fileID: 475970}
  - {fileID: 475954}
  - {fileID: 475842}
  - {fileID: 475870}
  - {fileID: 475950}
  - {fileID: 475846}
  - {fileID: 475862}
  - {fileID: 475890}
  - {fileID: 475918}
  - {fileID: 475878}
  - {fileID: 475972}
  - {fileID: 475962}
  - {fileID: 475852}
  - {fileID: 475982}
  - {fileID: 475934}
  - {fileID: 475858}
  - {fileID: 475974}
  - {fileID: 475952}
  - {fileID: 475944}
  - {fileID: 475872}
  - {fileID: 475898}
  m_BlendShapeWeights: []
  m_RootBone: {fileID: 475978}
  m_AABB:
    m_Center: {x: 0.0000038444996, y: -0.13568884, z: 0.035847947}
    m_Extent: {x: 0.9770154, y: 0.97503704, z: 0.16281843}
  m_DirtyAABB: 0
--- !u!137 &13741562
SkinnedMeshRenderer:
  m_ObjectHideFlags: 1
  m_PrefabParentObject: {fileID: 0}
  m_PrefabInternal: {fileID: 100100000}
  m_GameObject: {fileID: 141562}
  m_Enabled: 1
  m_CastShadows: 1
  m_ReceiveShadows: 1
  m_Materials:
  - {fileID: 2100000, guid: 7b1d1abe0222972429f2bfd1f1f00d1a, type: 2}
  - {fileID: 2100000, guid: 8fc0038605e326845ac94b6fac022d19, type: 2}
  - {fileID: 2100000, guid: 38e587d854d108f45a50ae0145d14489, type: 2}
  m_SubsetIndices: 
  m_StaticBatchRoot: {fileID: 0}
  m_UseLightProbes: 0
  m_ReflectionProbeUsage: 1
  m_ProbeAnchor: {fileID: 0}
  m_ScaleInLightmap: 1
  m_PreserveUVs: 0
  m_IgnoreNormalsForChartDetection: 0
  m_ImportantGI: 0
  m_MinimumChartSize: 4
  m_AutoUVMaxDistance: 0.5
  m_AutoUVMaxAngle: 89
  m_LightmapParameters: {fileID: 0}
  m_SortingLayerID: 0
  m_SortingOrder: 0
  serializedVersion: 2
  m_Quality: 0
  m_UpdateWhenOffscreen: 0
  m_Mesh: {fileID: 4300000, guid: 51f1d9d1a4930964186764b8a192fb9d, type: 3}
  m_Bones:
  - {fileID: 475978}
  - {fileID: 475856}
  - {fileID: 475876}
  - {fileID: 475912}
  - {fileID: 475884}
  - {fileID: 475920}
  - {fileID: 475938}
  - {fileID: 475942}
  - {fileID: 475850}
  - {fileID: 475986}
  - {fileID: 475848}
  - {fileID: 475888}
  - {fileID: 475936}
  - {fileID: 475894}
  - {fileID: 475880}
  - {fileID: 475924}
  - {fileID: 475844}
  - {fileID: 475932}
  - {fileID: 475916}
  - {fileID: 475980}
  - {fileID: 475976}
  - {fileID: 475910}
  - {fileID: 475930}
  - {fileID: 475902}
  - {fileID: 475968}
  - {fileID: 475958}
  - {fileID: 475886}
  - {fileID: 475860}
  - {fileID: 475868}
  - {fileID: 475864}
  - {fileID: 475948}
  - {fileID: 475854}
  - {fileID: 475956}
  - {fileID: 475866}
  - {fileID: 475904}
  - {fileID: 475966}
  - {fileID: 475906}
  - {fileID: 475908}
  - {fileID: 475836}
  - {fileID: 475960}
  - {fileID: 475922}
  - {fileID: 475914}
  - {fileID: 475838}
  - {fileID: 475926}
  - {fileID: 475896}
  - {fileID: 475840}
  - {fileID: 475892}
  - {fileID: 475882}
  - {fileID: 475940}
  - {fileID: 475928}
  - {fileID: 475946}
  - {fileID: 475970}
  - {fileID: 475954}
  - {fileID: 475842}
  - {fileID: 475870}
  - {fileID: 475950}
  - {fileID: 475846}
  - {fileID: 475862}
  - {fileID: 475890}
  - {fileID: 475918}
  - {fileID: 475878}
  - {fileID: 475972}
  - {fileID: 475962}
  - {fileID: 475852}
  - {fileID: 475982}
  - {fileID: 475934}
  - {fileID: 475858}
  - {fileID: 475974}
  - {fileID: 475952}
  - {fileID: 475944}
  - {fileID: 475872}
  - {fileID: 475898}
  m_BlendShapeWeights: []
  m_RootBone: {fileID: 475978}
  m_AABB:
    m_Center: {x: -0.0000047385693, y: -0.13484591, z: 0.034326613}
    m_Extent: {x: 0.9769678, y: 0.97587997, z: 0.16440803}
  m_DirtyAABB: 0
--- !u!1001 &100100000
Prefab:
  m_ObjectHideFlags: 1
  serializedVersion: 2
  m_Modification:
    m_TransformParent: {fileID: 0}
    m_Modifications: []
    m_RemovedComponents: []
  m_ParentPrefab: {fileID: 0}
  m_RootGameObject: {fileID: 175874}
  m_IsPrefabParent: 1
